superscaler/8stage/wave.vcd
$date
	Mon Feb  3 18:55:00 2025
$end
$version
	Icarus Verilog
$end
$timescale
	1ps
$end
$scope module tb_MIPS_Processor $end
$var reg 1 ! clk $end
$var reg 1 " reset $end
$scope function secretCalc $end
$var integer 32 # idx [31:0] $end
$upscope $end
$scope module uut $end
$var wire 1 $ MEM_WB_RegWrite $end
$var wire 32 % MEM_WB_result [31:0] $end
$var wire 5 & MEM_WB_write_reg [4:0] $end
$var wire 1 ! clk $end
$var wire 1 " reset $end
$var wire 32 ' sign_ext_imm [31:0] $end
$var wire 32 ( pr_rt_data [31:0] $end
$var wire 5 ) pr_rt [4:0] $end
$var wire 32 * pr_rs_data [31:0] $end
$var wire 5 + pr_rs [4:0] $end
$var wire 6 , opcode [5:0] $end
$var wire 32 - mr_read_data [31:0] $end
$var wire 5 . id_rt [4:0] $end
$var wire 5 / id_rs [4:0] $end
$var wire 5 0 id_rd [4:0] $end
$var wire 16 1 id_immediate [15:0] $end
$var wire 6 2 id_funct [5:0] $end
$var wire 5 3 ex_write_reg [4:0] $end
$var wire 32 4 dummy_read_unused [31:0] $end
$var wire 32 5 branch_target [31:0] $end
$var wire 1 6 alu_zero $end
$var wire 32 7 alu_result [31:0] $end
$var wire 32 8 alu_operand2 [31:0] $end
$var wire 5 9 WB_write_reg [4:0] $end
$var wire 32 : WB_read_data [31:0] $end
$var wire 32 ; WB_alu_result [31:0] $end
$var wire 1 < WB_RegWrite $end
$var wire 1 = WB_MemToReg $end
$var wire 32 > PR_ID_rt_data [31:0] $end
$var wire 32 ? PR_ID_rs_data [31:0] $end
$var wire 32 @ PR_ID_pc [31:0] $end
$var wire 32 A PR_ID_instr [31:0] $end
$var wire 5 B MW_write_reg [4:0] $end
$var wire 32 C MW_rt_data [31:0] $end
$var wire 32 D MW_read_data [31:0] $end
$var wire 32 E MW_alu_result [31:0] $end
$var wire 1 F MW_RegWrite $end
$var wire 1 G MW_MemWrite $end
$var wire 1 H MW_MemToReg $end
$var wire 1 I MW_MemRead $end
$var wire 1 J MR_zero $end
$var wire 5 K MR_write_reg [4:0] $end
$var wire 32 L MR_rt_data [31:0] $end
$var wire 32 M MR_branch_target [31:0] $end
$var wire 32 N MR_alu_result [31:0] $end
$var wire 1 O MR_RegWrite $end
$var wire 1 P MR_MemWrite $end
$var wire 1 Q MR_MemToReg $end
$var wire 1 R MR_MemRead $end
$var wire 1 S MR_Branch $end
$var wire 32 T MEM_WB_result_internal [31:0] $end
$var wire 32 U IF_pc_plus4 [31:0] $end
$var wire 32 V IF_instruction [31:0] $end
$var wire 32 W IF_PR_pc [31:0] $end
$var wire 32 X IF_PR_instruction [31:0] $end
$var wire 1 Y ID_RegWrite $end
$var wire 1 Z ID_RegDst $end
$var wire 1 [ ID_MemWrite $end
$var wire 1 \ ID_MemToReg $end
$var wire 1 ] ID_MemRead $end
$var wire 1 ^ ID_Jump $end
$var wire 1 _ ID_Branch $end
$var wire 1 ` ID_ALUSrc $end
$var wire 2 a ID_ALUOp [1:0] $end
$var wire 5 b FW_write_reg [4:0] $end
$var wire 32 c FW_write_data [31:0] $end
$var wire 1 d FW_regwrite $end
$var wire 32 e EX_sign_ext_imm [31:0] $end
$var wire 32 f EX_rt_data [31:0] $end
$var wire 5 g EX_rt [4:0] $end
$var wire 32 h EX_rs_data [31:0] $end
$var wire 5 i EX_rs [4:0] $end
$var wire 5 j EX_rd [4:0] $end
$var wire 32 k EX_pc [31:0] $end
$var wire 6 l EX_funct [5:0] $end
$var wire 1 m EX_RegWrite $end
$var wire 1 n EX_RegDst $end
$var wire 1 o EX_MemWrite $end
$var wire 1 p EX_MemToReg $end
$var wire 1 q EX_MemRead $end
$var wire 1 r EX_Jump $end
$var wire 1 s EX_Branch $end
$var wire 1 t EX_ALUSrc $end
$var wire 2 u EX_ALUOp [1:0] $end
$var wire 4 v EX_ALUControl [3:0] $end
$var reg 32 w PC [31:0] $end
$scope module alu $end
$var wire 32 x B [31:0] $end
$var wire 1 6 Zero $end
$var wire 4 y ALUControl [3:0] $end
$var wire 32 z A [31:0] $end
$var reg 32 { Result [31:0] $end
$upscope $end
$scope module alu_ctrl $end
$var wire 6 | funct [5:0] $end
$var wire 2 } ALUOp [1:0] $end
$var reg 4 ~ ALUControl [3:0] $end
$upscope $end
$scope module ctrl $end
$var wire 6 !" opcode [5:0] $end
$var reg 2 "" ALUOp [1:0] $end
$var reg 1 ` ALUSrc $end
$var reg 1 _ Branch $end
$var reg 1 ^ Jump $end
$var reg 1 ] MemRead $end
$var reg 1 \ MemToReg $end
$var reg 1 [ MemWrite $end
$var reg 1 Z RegDst $end
$var reg 1 Y RegWrite $end
$upscope $end
$scope module dmem $end
$var wire 1 #" MemWrite $end
$var wire 1 ! clk $end
$var wire 32 $" write_data [31:0] $end
$var wire 32 %" addr [31:0] $end
$var wire 1 R MemRead $end
$var reg 32 &" read_data [31:0] $end
$var integer 32 '" i [31:0] $end
$upscope $end
$scope module dmem_write_port $end
$var wire 1 (" MemRead $end
$var wire 1 ! clk $end
$var wire 32 )" write_data [31:0] $end
$var wire 32 *" addr [31:0] $end
$var wire 1 G MemWrite $end
$var reg 32 +" read_data [31:0] $end
$var integer 32 ," i [31:0] $end
$upscope $end
$scope module ex_mr_reg $end
$var wire 32 -" alu_result_in [31:0] $end
$var wire 32 ." branch_target_in [31:0] $end
$var wire 1 ! clk $end
$var wire 1 " reset $end
$var wire 5 /" write_reg_in [4:0] $end
$var wire 1 6 zero_in $end
$var wire 32 0" rt_data_in [31:0] $end
$var wire 1 m RegWrite_in $end
$var wire 1 o MemWrite_in $end
$var wire 1 p MemToReg_in $end
$var wire 1 q MemRead_in $end
$var wire 1 s Branch_in $end
$var reg 1 S Branch_out $end
$var reg 1 R MemRead_out $end
$var reg 1 Q MemToReg_out $end
$var reg 1 P MemWrite_out $end
$var reg 1 O RegWrite_out $end
$var reg 32 1" alu_result_out [31:0] $end
$var reg 32 2" branch_target_out [31:0] $end
$var reg 32 3" rt_data_out [31:0] $end
$var reg 5 4" write_reg_out [4:0] $end
$var reg 1 J zero_out $end
$upscope $end
$scope module id_ex_reg $end
$var wire 2 5" ALUOp_in [1:0] $end
$var wire 1 ` ALUSrc_in $end
$var wire 1 _ Branch_in $end
$var wire 1 ^ Jump_in $end
$var wire 1 ] MemRead_in $end
$var wire 1 \ MemToReg_in $end
$var wire 1 [ MemWrite_in $end
$var wire 1 Z RegDst_in $end
$var wire 1 Y RegWrite_in $end
$var wire 1 ! clk $end
$var wire 6 6" funct_in [5:0] $end
$var wire 5 7" rd_in [4:0] $end
$var wire 1 " reset $end
$var wire 5 8" rs_in [4:0] $end
$var wire 5 9" rt_in [4:0] $end
$var wire 32 :" sign_ext_imm_in [31:0] $end
$var wire 32 ;" rt_data_in [31:0] $end
$var wire 32 <" rs_data_in [31:0] $end
$var wire 32 =" pc_in [31:0] $end
$var reg 2 >" ALUOp_out [1:0] $end
$var reg 1 t ALUSrc_out $end
$var reg 1 s Branch_out $end
$var reg 1 r Jump_out $end
$var reg 1 q MemRead_out $end
$var reg 1 p MemToReg_out $end
$var reg 1 o MemWrite_out $end
$var reg 1 n RegDst_out $end
$var reg 1 m RegWrite_out $end
$var reg 6 ?" funct_out [5:0] $end
$var reg 32 @" pc_out [31:0] $end
$var reg 5 A" rd_out [4:0] $end
$var reg 32 B" rs_data_out [31:0] $end
$var reg 5 C" rs_out [4:0] $end
$var reg 32 D" rt_data_out [31:0] $end
$var reg 5 E" rt_out [4:0] $end
$var reg 32 F" sign_ext_imm_out [31:0] $end
$upscope $end
$scope module if_pr_reg $end
$var wire 1 ! clk $end
$var wire 32 G" pc_in [31:0] $end
$var wire 1 " reset $end
$var wire 32 H" instr_in [31:0] $end
$var reg 32 I" instr_out [31:0] $end
$var reg 32 J" pc_out [31:0] $end
$upscope $end
$scope module imem $end
$var wire 32 K" addr [31:0] $end
$var wire 32 L" instruction [31:0] $end
$var integer 32 M" i [31:0] $end
$upscope $end
$scope module mr_mw_reg $end
$var wire 1 R MemRead_in $end
$var wire 1 Q MemToReg_in $end
$var wire 1 P MemWrite_in $end
$var wire 1 O RegWrite_in $end
$var wire 32 N" alu_result_in [31:0] $end
$var wire 1 ! clk $end
$var wire 32 O" read_data_in [31:0] $end
$var wire 1 " reset $end
$var wire 32 P" rt_data_in [31:0] $end
$var wire 5 Q" write_reg_in [4:0] $end
$var reg 1 I MemRead_out $end
$var reg 1 H MemToReg_out $end
$var reg 1 G MemWrite_out $end
$var reg 1 F RegWrite_out $end
$var reg 32 R" alu_result_out [31:0] $end
$var reg 32 S" read_data_out [31:0] $end
$var reg 32 T" rt_data_out [31:0] $end
$var reg 5 U" write_reg_out [4:0] $end
$upscope $end
$scope module mw_wb_reg $end
$var wire 1 H MemToReg_in $end
$var wire 1 F RegWrite_in $end
$var wire 32 V" alu_result_in [31:0] $end
$var wire 1 ! clk $end
$var wire 32 W" read_data_in [31:0] $end
$var wire 1 " reset $end
$var wire 5 X" write_reg_in [4:0] $end
$var reg 1 = MemToReg_out $end
$var reg 1 < RegWrite_out $end
$var reg 32 Y" alu_result_out [31:0] $end
$var reg 32 Z" read_data_out [31:0] $end
$var reg 5 [" write_reg_out [4:0] $end
$upscope $end
$scope module pr_id_reg $end
$var wire 1 ! clk $end
$var wire 32 \" instr_in [31:0] $end
$var wire 32 ]" pc_in [31:0] $end
$var wire 1 " reset $end
$var wire 32 ^" rt_data_in [31:0] $end
$var wire 32 _" rs_data_in [31:0] $end
$var reg 32 `" instr_out [31:0] $end
$var reg 32 a" pc_out [31:0] $end
$var reg 32 b" rs_data_out [31:0] $end
$var reg 32 c" rt_data_out [31:0] $end
$upscope $end
$scope module rf $end
$var wire 1 $ RegWrite $end
$var wire 1 ! clk $end
$var wire 5 d" read_reg1 [4:0] $end
$var wire 5 e" read_reg2 [4:0] $end
$var wire 32 f" write_data [31:0] $end
$var wire 5 g" write_reg [4:0] $end
$var wire 32 h" read_data2 [31:0] $end
$var wire 32 i" read_data1 [31:0] $end
$var integer 32 j" i [31:0] $end
$upscope $end
$scope module wb_fw_reg $end
$var wire 1 ! clk $end
$var wire 1 " reset $end
$var wire 32 k" wb_data_in [31:0] $end
$var wire 1 < wb_regwrite_in $end
$var wire 5 l" write_reg_in [4:0] $end
$var reg 32 m" wb_data_out [31:0] $end
$var reg 1 d wb_regwrite_out $end
$var reg 5 n" write_reg_out [4:0] $end
$upscope $end
$upscope $end
$scope begin $ivl_for_loop0 $end
$var integer 32 o" i [31:0] $end
$upscope $end
$upscope $end
$enddefinitions $end
$comment Show the parameter values. $end
$dumpall
$end
#0
$dumpvars
bx o"
bx n"
bx m"
bx l"
bx k"
b100000 j"
bx i"
bx h"
bx g"
bx f"
bx e"
bx d"
bx c"
bx b"
bx a"
bx `"
bx _"
bx ^"
bx ]"
bx \"
bx ["
bx Z"
bx Y"
bx X"
bx W"
bx V"
bx U"
bx T"
bx S"
bx R"
bx Q"
bx P"
b0 O"
bx N"
b1000000 M"
bx L"
bx K"
bx J"
bx I"
bx H"
bx G"
bx F"
bx E"
bx D"
bx C"
bx B"
bx A"
bx @"
bx ?"
bx >"
bx ="
bx <"
bx ;"
bx :"
bx 9"
bx 8"
bx 7"
bx 6"
bx 5"
bx 4"
bx 3"
bx 2"
bx 1"
bx 0"
bx /"
bx ."
bx -"
b1000000 ,"
b0 +"
bx *"
bx )"
0("
b1000000 '"
b0 &"
bx %"
b0 $"
0#"
bx ""
bx !"
bx ~
bx }
bx |
bx {
bx z
bx y
bx x
bx w
bx v
bx u
xt
xs
xr
xq
xp
xo
xn
xm
bx l
bx k
bx j
bx i
bx h
bx g
bx f
bx e
xd
bx c
bx b
bx a
x`
x_
x^
x]
x\
x[
xZ
xY
bx X
bx W
bx V
bx U
bx T
xS
xR
xQ
xP
xO
bx N
bx M
bx L
bx K
xJ
xI
xH
xG
xF
bx E
bx D
bx C
bx B
bx A
bx @
bx ?
bx >
x=
x<
bx ;
bx :
bx 9
bx 8
bx 7
x6
bx 5
b0 4
bx 3
bx 2
bx 1
bx 0
bx /
bx .
b0 -
bx ,
bx +
bx *
bx )
bx (
bx '
bx &
bx %
x$
bx #
1"
0!
$end
#5000
b0 (
b0 ^"
b0 h"
b0 *
b0 _"
b0 i"
b10 a
b10 ""
b10 5"
0^
0_
0[
0]
1Y
0\
0`
1Z
b0 )
b0 e"
b0 +
b0 d"
b0 '
b0 :"
b0 1
b0 2
b0 6"
b0 0
b0 7"
b0 .
b0 9"
b0 /
b0 8"
b0 ,
b0 !"
b0 5
b0 ."
16
b0 7
b0 {
b0 -"
b10 v
b10 y
b10 ~
b0 8
b0 x
b0 3
b0 /"
b0 T
b0 k"
b10001100000000010000000000000000 V
b10001100000000010000000000000000 H"
b10001100000000010000000000000000 L"
b0 X
b0 I"
b0 \"
b0 W
b0 J"
b0 ]"
b0 @
b0 ="
b0 a"
b0 A
b0 `"
b0 >
b0 ;"
b0 c"
b0 ?
b0 <"
b0 b"
b0 l
b0 |
b0 ?"
b0 j
b0 A"
b0 g
b0 E"
b0 i
b0 C"
b0 e
b0 F"
b0 f
b0 0"
b0 D"
b0 h
b0 z
b0 B"
b0 k
b0 @"
b0 u
b0 }
b0 >"
0r
0s
0o
0q
0m
0p
0t
0n
b0 K
b0 4"
b0 Q"
b0 L
b0 3"
b0 P"
b0 N
b0 %"
b0 1"
b0 N"
0J
b0 M
b0 2"
0S
0P
0R
0O
0Q
b0 B
b0 U"
b0 X"
b0 C
b0 )"
b0 T"
b0 D
b0 S"
b0 W"
b0 E
b0 *"
b0 R"
b0 V"
0G
0I
0F
0H
b0 9
b0 ["
b0 l"
b0 :
b0 Z"
b0 ;
b0 Y"
0<
0=
0$
0d
b0 %
b0 f"
b0 c
b0 m"
b0 &
b0 g"
b0 b
b0 n"
b100 U
b100 G"
b0 w
b0 K"
1!
#10000
0!
0"
#15000
b10001100000000100000000000000100 V
b10001100000000100000000000000100 H"
b10001100000000100000000000000100 L"
b0 v
b0 y
b0 ~
b1 )
b1 e"
b1000 U
b1000 G"
b100 w
b100 K"
1J
b10 u
b10 }
b10 >"
1m
1n
b10001100000000010000000000000000 X
b10001100000000010000000000000000 I"
b10001100000000010000000000000000 \"
b100 W
b100 J"
b100 ]"
1!
#20000
0!
#25000
1]
1\
1`
b0 a
b0 ""
b0 5"
1Y
0Z
b10 )
b10 e"
b1 .
b1 9"
b100011 ,
b100011 !"
b0 V
b0 H"
b0 L"
b10001100000000100000000000000100 X
b10001100000000100000000000000100 I"
b10001100000000100000000000000100 \"
b1000 W
b1000 J"
b1000 ]"
b100 @
b100 ="
b100 a"
b10001100000000010000000000000000 A
b10001100000000010000000000000000 `"
1O
b1100 U
b1100 G"
b1000 w
b1000 K"
1!
#30000
0!
#35000
b10 v
b10 y
b10 ~
b1 3
b1 /"
b100 '
b100 :"
b100 1
b100 2
b100 6"
b10 .
b10 9"
b0 )
b0 e"
b10000 U
b10000 G"
b1100 w
b1100 K"
1F
b1 g
b1 E"
b100 5
b100 ."
b100 k
b100 @"
b0 u
b0 }
b0 >"
1q
1p
1t
0n
b1000 @
b1000 ="
b1000 a"
b10001100000000100000000000000100 A
b10001100000000100000000000000100 `"
b0 X
b0 I"
b0 \"
b1100 W
b1100 J"
b1100 ]"
1!
#40000
0!
#45000
b10 a
b10 ""
b10 5"
1Z
0]
1Y
0\
0`
06
b100 7
b100 {
b100 -"
b0 '
b0 :"
b0 1
b0 2
b0 6"
b0 .
b0 9"
b0 ,
b0 !"
b10 3
b10 /"
b100 8
b100 x
b10000 W
b10000 J"
b10000 ]"
b1100 @
b1100 ="
b1100 a"
b0 A
b0 `"
b100 l
b100 |
b100 ?"
b10 g
b10 E"
b100 e
b100 F"
b11000 5
b11000 ."
b1000 k
b1000 @"
b1 K
b1 4"
b1 Q"
b100 M
b100 2"
1R
1Q
1<
b10100 U
b10100 G"
b10000 w
b10000 K"
1!
#50000
0!
#55000
16
b0 7
b0 {
b0 -"
b1 -
b1 &"
b1 O"
b0 v
b0 y
b0 ~
b0 8
b0 x
b0 3
b0 /"
b11000 U
b11000 G"
b10100 w
b10100 K"
1$
1d
b1 B
b1 U"
b1 X"
1I
1H
b10 K
b10 4"
b10 Q"
b100 N
b100 %"
b100 1"
b100 N"
0J
b11000 M
b11000 2"
b0 l
b0 |
b0 ?"
b0 g
b0 E"
b0 e
b0 F"
b1100 5
b1100 ."
b1100 k
b1100 @"
b10 u
b10 }
b10 >"
0q
0p
0t
1n
b10000 @
b10000 ="
b10000 a"
b10100 W
b10100 J"
b10100 ]"
1!
#60000
0!
#65000
b0 -
b0 &"
b0 O"
b11000 W
b11000 J"
b11000 ]"
b10100 @
b10100 ="
b10100 a"
b10000 5
b10000 ."
b10000 k
b10000 @"
b0 K
b0 4"
b0 Q"
b0 N
b0 %"
b0 1"
b0 N"
1J
b1100 M
b1100 2"
0R
0Q
b10 B
b10 U"
b10 X"
b1 D
b1 S"
b1 W"
b100 E
b100 *"
b100 R"
b100 V"
b1 9
b1 ["
b1 l"
1=
b11100 U
b11100 G"
b11000 w
b11000 K"
1!
#70000
0!
#75000
b1 T
b1 k"
b100000 U
b100000 G"
b11100 w
b11100 K"
b1 &
b1 g"
b1 b
b1 n"
b10 9
b10 ["
b10 l"
b1 :
b1 Z"
b100 ;
b100 Y"
b0 B
b0 U"
b0 X"
b0 D
b0 S"
b0 W"
b0 E
b0 *"
b0 R"
b0 V"
0I
0H
b10000 M
b10000 2"
b10100 5
b10100 ."
b10100 k
b10100 @"
b11000 @
b11000 ="
b11000 a"
b11100 W
b11100 J"
b11100 ]"
1!
#80000
0!
#85000
b0 T
b0 k"
b10000000100000 V
b10000000100000 H"
b10000000100000 L"
b100000 W
b100000 J"
b100000 ]"
b11100 @
b11100 ="
b11100 a"
b11000 5
b11000 ."
b11000 k
b11000 @"
b10100 M
b10100 2"
b0 9
b0 ["
b0 l"
b0 :
b0 Z"
b0 ;
b0 Y"
0=
b1 %
b1 f"
b1 c
b1 m"
b10 &
b10 g"
b10 b
b10 n"
b100100 U
b100100 G"
b100000 w
b100000 K"
1!
#90000
0!
#95000
b100000000001010000000000001000 V
b100000000001010000000000001000 H"
b100000000001010000000000001000 L"
b101000 U
b101000 G"
b100100 w
b100100 K"
b0 %
b0 f"
b0 c
b0 m"
b0 &
b0 g"
b0 b
b0 n"
b11000 M
b11000 2"
b11100 5
b11100 ."
b11100 k
b11100 @"
b100000 @
b100000 ="
b100000 a"
b10000000100000 X
b10000000100000 I"
b10000000100000 \"
b100100 W
b100100 J"
b100100 ]"
1!
#100000
0!
#105000
b101 )
b101 e"
b10000000100000 '
b10000000100000 :"
b10000000100000 1
b100000 2
b100000 6"
b100 0
b100 7"
b1000100001100000100000 V
b1000100001100000100000 H"
b1000100001100000100000 L"
b100000000001010000000000001000 X
b100000000001010000000000001000 I"
b100000000001010000000000001000 \"
b101000 W
b101000 J"
b101000 ]"
b100100 @
b100100 ="
b100100 a"
b10000000100000 A
b10000000100000 `"
b100000 5
b100000 ."
b100000 k
b100000 @"
b11100 M
b11100 2"
b101100 U
b101100 G"
b101000 w
b101000 K"
1!
#110000
0!
#115000
1`
b0 a
b0 ""
b0 5"
1Y
0Z
b1 (
b1 ^"
b1 h"
b10101100101000110000000000000000 V
b10101100101000110000000000000000 H"
b10101100101000110000000000000000 L"
b10 v
b10 y
b10 ~
b100 3
b100 /"
b1000 '
b1000 :"
b1000 1
b1000 2
b1000 6"
b0 0
b0 7"
b101 .
b101 9"
b1000 ,
b1000 !"
b10 )
b10 e"
b1 +
b1 d"
b110000 U
b110000 G"
b101100 w
b101100 K"
b100000 M
b100000 2"
b100000 l
b100000 |
b100000 ?"
b100 j
b100 A"
b10000000100000 e
b10000000100000 F"
b1000000010100100 5
b1000000010100100 ."
b100100 k
b100100 @"
b101000 @
b101000 ="
b101000 a"
b100000000001010000000000001000 A
b100000000001010000000000001000 `"
b1000100001100000100000 X
b1000100001100000100000 I"
b1000100001100000100000 \"
b101100 W
b101100 J"
b101100 ]"
1!
#120000
0!
#125000
b0 (
b0 ^"
b0 h"
b10 a
b10 ""
b10 5"
1Z
1Y
0`
06
b1000 7
b1000 {
b1000 -"
b11 )
b11 e"
b101 +
b101 d"
b1100000100000 '
b1100000100000 :"
b1100000100000 1
b100000 2
b100000 6"
b11 0
b11 7"
b10 .
b10 9"
b1 /
b1 8"
b0 ,
b0 !"
b1000 8
b1000 x
b101 3
b101 /"
b10000000000100000100000 V
b10000000000100000100000 H"
b10000000000100000100000 L"
b10101100101000110000000000000000 X
b10101100101000110000000000000000 I"
b10101100101000110000000000000000 \"
b110000 W
b110000 J"
b110000 ]"
b101100 @
b101100 ="
b101100 a"
b1000100001100000100000 A
b1000100001100000100000 `"
b1 >
b1 ;"
b1 c"
b1000 l
b1000 |
b1000 ?"
b0 j
b0 A"
b101 g
b101 E"
b1000 e
b1000 F"
b1001000 5
b1001000 ."
b101000 k
b101000 @"
b0 u
b0 }
b0 >"
1t
0n
b100 K
b100 4"
b100 Q"
b1000000010100100 M
b1000000010100100 2"
b110100 U
b110100 G"
b110000 w
b110000 K"
1!
#130000
0!
#135000
b1 7
b1 {
b1 -"
1[
1`
b0 a
b0 ""
b0 5"
0Y
0Z
b1 *
b1 _"
b1 i"
b11000000001000000100000 V
b11000000001000000100000 H"
b11000000001000000100000 L"
b1 8
b1 x
b11 3
b11 /"
b0 '
b0 :"
b0 1
b0 2
b0 6"
b0 0
b0 7"
b11 .
b11 9"
b101 /
b101 8"
b101011 ,
b101011 !"
b0 )
b0 e"
b10 +
b10 d"
b111000 U
b111000 G"
b110100 w
b110100 K"
b100 B
b100 U"
b100 X"
b101 K
b101 4"
b101 Q"
b1000 N
b1000 %"
b1000 1"
b1000 N"
0J
b1001000 M
b1001000 2"
b100000 l
b100000 |
b100000 ?"
b11 j
b11 A"
b10 g
b10 E"
b1 i
b1 C"
b1100000100000 e
b1100000100000 F"
b1 f
b1 0"
b1 D"
b110000010101100 5
b110000010101100 ."
b101100 k
b101100 @"
b10 u
b10 }
b10 >"
0t
1n
b110000 @
b110000 ="
b110000 a"
b10101100101000110000000000000000 A
b10101100101000110000000000000000 `"
b0 >
b0 ;"
b0 c"
b10000000000100000100000 X
b10000000000100000100000 I"
b10000000000100000100000 \"
b110100 W
b110100 J"
b110100 ]"
1!
#140000
0!
#145000
b0 *
b0 _"
b0 i"
b10 a
b10 ""
b10 5"
1Y
1Z
0[
0`
16
b0 7
b0 {
b0 -"
b11 +
b11 d"
b100000100000 '
b100000100000 :"
b100000100000 1
b100000 2
b100000 6"
b1 0
b1 7"
b0 .
b0 9"
b10 /
b10 8"
b0 ,
b0 !"
b0 8
b0 x
b100000101001010000000000000100 V
b100000101001010000000000000100 H"
b100000101001010000000000000100 L"
b11000000001000000100000 X
b11000000001000000100000 I"
b11000000001000000100000 \"
b111000 W
b111000 J"
b111000 ]"
b110100 @
b110100 ="
b110100 a"
b10000000000100000100000 A
b10000000000100000100000 `"
b1 ?
b1 <"
b1 b"
b0 l
b0 |
b0 ?"
b0 j
b0 A"
b11 g
b11 E"
b101 i
b101 C"
b0 e
b0 F"
b0 f
b0 0"
b0 D"
b110000 5
b110000 ."
b110000 k
b110000 @"
b0 u
b0 }
b0 >"
1o
0m
1t
0n
b11 K
b11 4"
b11 Q"
b1 L
b1 3"
b1 P"
b1 N
b1 %"
b1 1"
b1 N"
b110000010101100 M
b110000010101100 2"
b101 B
b101 U"
b101 X"
b1000 E
b1000 *"
b1000 R"
b1000 V"
b100 9
b100 ["
b100 l"
b111100 U
b111100 G"
b111000 w
b111000 K"
1!
#150000
0!
#155000
b100000100001000000000000000001 V
b100000100001000000000000000001 H"
b100000100001000000000000000001 L"
b1000 T
b1000 k"
06
b1 7
b1 {
b1 -"
b1 3
b1 /"
b1000000100000 '
b1000000100000 :"
b1000000100000 1
b10 0
b10 7"
b11 /
b11 8"
b101 )
b101 e"
b101 +
b101 d"
b1000000 U
b1000000 G"
b111100 w
b111100 K"
b100 &
b100 g"
b100 b
b100 n"
b101 9
b101 ["
b101 l"
b1000 ;
b1000 Y"
b11 B
b11 U"
b11 X"
b1 C
b1 )"
b1 T"
b1 E
b1 *"
b1 R"
b1 V"
b0 L
b0 3"
b0 P"
b0 N
b0 %"
b0 1"
b0 N"
1J
b110000 M
b110000 2"
1P
0O
b100000 l
b100000 |
b100000 ?"
b1 j
b1 A"
b0 g
b0 E"
b10 i
b10 C"
b100000100000 e
b100000100000 F"
b1 h
b1 z
b1 B"
b10000010110100 5
b10000010110100 ."
b110100 k
b110100 @"
b10 u
b10 }
b10 >"
0o
1m
0t
1n
b111000 @
b111000 ="
b111000 a"
b11000000001000000100000 A
b11000000001000000100000 `"
b0 ?
b0 <"
b0 b"
b100000101001010000000000000100 X
b100000101001010000000000000100 I"
b100000101001010000000000000100 \"
b111100 W
b111100 J"
b111100 ]"
1!
#160000
0!
#165000
b0 *
b0 _"
b0 i"
b0 (
b0 ^"
b0 h"
1`
b0 a
b0 ""
b0 5"
1Y
0Z
b100 )
b100 e"
b100 +
b100 d"
b100 '
b100 :"
b100 1
b100 2
b100 6"
b0 0
b0 7"
b101 .
b101 9"
b101 /
b101 8"
b1000 ,
b1000 !"
b10 3
b10 /"
16
b0 7
b0 {
b0 -"
b1 T
b1 k"
b100000000001110000000000001010 V
b100000000001110000000000001010 H"
b100000000001110000000000001010 L"
b100000100001000000000000000001 X
b100000100001000000000000000001 I"
b100000100001000000000000000001 \"
b1000000 W
b1000000 J"
b1000000 ]"
b111100 @
b111100 ="
b111100 a"
b100000101001010000000000000100 A
b100000101001010000000000000100 `"
b10 j
b10 A"
b11 i
b11 C"
b1000000100000 e
b1000000100000 F"
b0 h
b0 z
b0 B"
b100000010111000 5
b100000010111000 ."
b111000 k
b111000 @"
b1 K
b1 4"
b1 Q"
b1 N
b1 %"
b1 1"
b1 N"
0J
b10000010110100 M
b10000010110100 2"
0P
1O
b0 C
b0 )"
b0 T"
b0 E
b0 *"
b0 R"
b0 V"
1G
0F
b11 9
b11 ["
b11 l"
b1 ;
b1 Y"
b1000 %
b1000 f"
b1000 c
b1000 m"
b101 &
b101 g"
b101 b
b101 n"
b1000100 U
b1000100 G"
b1000000 w
b1000000 K"
1!
#170000
0!
#175000
06
b100 7
b100 {
b100 -"
b10000100001110000000000000101 V
b10000100001110000000000000101 H"
b10000100001110000000000000101 L"
b0 T
b0 k"
b100 8
b100 x
b101 3
b101 /"
b1 '
b1 :"
b1 1
b1 2
b1 6"
b100 .
b100 9"
b100 /
b100 8"
b111 )
b111 e"
b0 +
b0 d"
b1001000 U
b1001000 G"
b1000100 w
b1000100 K"
b1 %
b1 f"
b1 c
b1 m"
b11 &
b11 g"
b11 b
b11 n"
b0 ;
b0 Y"
0<
b1 B
b1 U"
b1 X"
b1 E
b1 *"
b1 R"
b1 V"
0G
1F
b10 K
b10 4"
b10 Q"
b0 N
b0 %"
b0 1"
b0 N"
1J
b100000010111000 M
b100000010111000 2"
b100 l
b100 |
b100 ?"
b0 j
b0 A"
b101 g
b101 E"
b101 i
b101 C"
b100 e
b100 F"
b1001100 5
b1001100 ."
b111100 k
b111100 @"
b0 u
b0 }
b0 >"
1t
0n
b1000000 @
b1000000 ="
b1000000 a"
b100000100001000000000000000001 A
b100000100001000000000000000001 `"
b100000000001110000000000001010 X
b100000000001110000000000001010 I"
b100000000001110000000000001010 \"
b1000100 W
b1000100 J"
b1000100 ]"
1!
#180000
0!
#185000
b1 7
b1 {
b1 -"
b100 +
b100 d"
b1010 '
b1010 :"
b1010 1
b1010 2
b1010 6"
b111 .
b111 9"
b0 /
b0 8"
b100 3
b100 /"
b1 8
b1 x
b1 T
b1 k"
b0 V
b0 H"
b0 L"
b10000100001110000000000000101 X
b10000100001110000000000000101 I"
b10000100001110000000000000101 \"
b1001000 W
b1001000 J"
b1001000 ]"
b1000100 @
b1000100 ="
b1000100 a"
b100000000001110000000000001010 A
b100000000001110000000000001010 `"
b1 l
b1 |
b1 ?"
b100 g
b100 E"
b100 i
b100 C"
b1 e
b1 F"
b1000100 5
b1000100 ."
b1000000 k
b1000000 @"
b101 K
b101 4"
b101 Q"
b100 N
b100 %"
b100 1"
b100 N"
0J
b1001100 M
b1001100 2"
b10 B
b10 U"
b10 X"
b0 E
b0 *"
b0 R"
b0 V"
b1 9
b1 ["
b1 l"
b1 ;
b1 Y"
1<
0$
0d
b0 %
b0 f"
b0 c
b0 m"
b1001100 U
b1001100 G"
b1001000 w
b1001000 K"
1!
#190000
0!
