completed mipss/wave.vcd
$date
	Sun Feb  2 06:12:38 2025
$end
$version
	Icarus Verilog
$end
$timescale
	1ps
$end
$scope module tb_MIPS_Procesor_Superscalar $end
$var reg 1 ! clk $end
$var reg 1 " reset $end
$scope function secretCalc $end
$var integer 32 # idx [31:0] $end
$upscope $end
$scope module uut $end
$var wire 1 ! clk $end
$var wire 1 $ exmr_zero $end
$var wire 1 " reset $end
$var wire 5 % wbfw_write_reg [4:0] $end
$var wire 32 & wbfw_write_data [31:0] $end
$var wire 1 ' wbfw_RegWrite $end
$var wire 32 ( wb_write_data [31:0] $end
$var wire 32 ) pr_pc [31:0] $end
$var wire 32 * pr_instr2 [31:0] $end
$var wire 32 + pr_instr1 [31:0] $end
$var wire 5 , mwwb_write_reg [4:0] $end
$var wire 32 - mwwb_mem_read_data [31:0] $end
$var wire 32 . mwwb_alu_result [31:0] $end
$var wire 1 / mwwb_RegWrite $end
$var wire 1 0 mwwb_MemToReg $end
$var wire 5 1 mrmw_write_reg [4:0] $end
$var wire 32 2 mrmw_store_data_out [31:0] $end
$var wire 32 3 mrmw_mem_read_data [31:0] $end
$var wire 32 4 mrmw_alu_result [31:0] $end
$var wire 1 5 mrmw_RegWrite $end
$var wire 1 6 mrmw_MemWrite $end
$var wire 1 7 mrmw_MemToReg $end
$var wire 32 8 instr2 [31:0] $end
$var wire 32 9 instr1 [31:0] $end
$var wire 32 : if_pc_plus8 [31:0] $end
$var wire 32 ; id_pc [31:0] $end
$var wire 32 < id_instr2 [31:0] $end
$var wire 32 = id_instr1 [31:0] $end
$var wire 5 > exmr_write_reg [4:0] $end
$var wire 32 ? exmr_data [31:0] $end
$var wire 32 @ exmr_branch_target [31:0] $end
$var wire 32 A exmr_alu_result [31:0] $end
$var wire 1 B exmr_RegWrite $end
$var wire 1 C exmr_MemWrite $end
$var wire 1 D exmr_MemToReg $end
$var wire 1 E exmr_MemRead $end
$var wire 1 F exmr_Branch $end
$var wire 32 G ex_pc [31:0] $end
$var wire 32 H ex_instr2 [31:0] $end
$var wire 32 I ex_instr1 [31:0] $end
$var wire 32 J dm_data [31:0] $end
$var wire 32 K decoded2 [31:0] $end
$var wire 32 L decoded1 [31:0] $end
$var wire 32 M alu_out2 [31:0] $end
$var wire 32 N alu_out1 [31:0] $end
$var reg 32 O PC [31:0] $end
$scope module dmem $end
$var wire 1 ! clk $end
$var wire 32 P write_data [31:0] $end
$var wire 32 Q addr [31:0] $end
$var wire 1 C MemWrite $end
$var wire 1 D MemRead $end
$var reg 32 R read_data [31:0] $end
$var integer 32 S i [31:0] $end
$upscope $end
$scope module ex_dual $end
$var wire 1 ! clk $end
$var wire 1 " reset $end
$var wire 5 T rt1 [4:0] $end
$var wire 5 U rs1 [4:0] $end
$var wire 5 V rd1 [4:0] $end
$var wire 6 W opcode1 [5:0] $end
$var wire 32 X instr2_in [31:0] $end
$var wire 32 Y instr1_in [31:0] $end
$var wire 6 Z funct1 [5:0] $end
$var reg 32 [ alu_out1 [31:0] $end
$var reg 32 \ alu_out2 [31:0] $end
$upscope $end
$scope module ex_mr $end
$var wire 1 ] Branch $end
$var wire 1 ^ MemRead $end
$var wire 1 _ MemToReg $end
$var wire 1 ` MemWrite $end
$var wire 1 a RegWrite $end
$var wire 32 b alu_result [31:0] $end
$var wire 1 $ alu_zero $end
$var wire 32 c branch_target [31:0] $end
$var wire 1 ! clk $end
$var wire 32 d pr_read_data2 [31:0] $end
$var wire 1 " reset $end
$var wire 5 e write_reg [4:0] $end
$var reg 1 F Branch_out $end
$var reg 1 E MemRead_out $end
$var reg 1 D MemToReg_out $end
$var reg 1 C MemWrite_out $end
$var reg 1 B RegWrite_out $end
$var reg 32 f alu_result_out [31:0] $end
$var reg 1 g alu_zero_out $end
$var reg 32 h branch_target_out [31:0] $end
$var reg 32 i pr_read_data2_out [31:0] $end
$var reg 5 j write_reg_out [4:0] $end
$upscope $end
$scope module id_dual $end
$var wire 1 ! clk $end
$var wire 1 k dependency $end
$var wire 1 " reset $end
$var wire 5 l rt2 [4:0] $end
$var wire 5 m rt1 [4:0] $end
$var wire 5 n rs2 [4:0] $end
$var wire 5 o rs1 [4:0] $end
$var wire 5 p rd1 [4:0] $end
$var wire 32 q pc_in [31:0] $end
$var wire 6 r opcode1 [5:0] $end
$var wire 32 s instr2_in [31:0] $end
$var wire 32 t instr1_in [31:0] $end
$var wire 5 u dest1 [4:0] $end
$var reg 32 v decoded1 [31:0] $end
$var reg 32 w decoded2 [31:0] $end
$var reg 32 x pc_out [31:0] $end
$upscope $end
$scope module id_ex_dual $end
$var wire 1 ! clk $end
$var wire 32 y decoded1_in [31:0] $end
$var wire 32 z decoded2_in [31:0] $end
$var wire 1 " reset $end
$var wire 32 { pc_in [31:0] $end
$var reg 32 | ex_instr1 [31:0] $end
$var reg 32 } ex_instr2 [31:0] $end
$var reg 32 ~ pc_out [31:0] $end
$upscope $end
$scope module if_pr_dual $end
$var wire 1 ! clk $end
$var wire 32 !" pc_in [31:0] $end
$var wire 1 " reset $end
$var wire 32 "" instr2_in [31:0] $end
$var wire 32 #" instr1_in [31:0] $end
$var reg 32 $" instr1_out [31:0] $end
$var reg 32 %" instr2_out [31:0] $end
$var reg 32 &" pc_out [31:0] $end
$upscope $end
$scope module imem_dual $end
$var wire 32 '" addr [31:0] $end
$var wire 32 (" instr1 [31:0] $end
$var wire 32 )" instr2 [31:0] $end
$var integer 32 *" i [31:0] $end
$upscope $end
$scope module mr_mw $end
$var wire 1 D MemToReg $end
$var wire 1 C MemWrite $end
$var wire 1 B RegWrite $end
$var wire 32 +" alu_result [31:0] $end
$var wire 1 ! clk $end
$var wire 32 ," mem_read_data [31:0] $end
$var wire 1 " reset $end
$var wire 32 -" store_data [31:0] $end
$var wire 5 ." write_reg [4:0] $end
$var reg 1 7 MemToReg_out $end
$var reg 1 6 MemWrite_out $end
$var reg 1 5 RegWrite_out $end
$var reg 32 /" alu_result_out [31:0] $end
$var reg 32 0" mem_read_data_out [31:0] $end
$var reg 32 1" store_data_out [31:0] $end
$var reg 5 2" write_reg_out [4:0] $end
$upscope $end
$scope module mw_wb $end
$var wire 1 7 MemToReg $end
$var wire 1 5 RegWrite $end
$var wire 32 3" alu_result [31:0] $end
$var wire 1 ! clk $end
$var wire 32 4" mem_read_data [31:0] $end
$var wire 1 " reset $end
$var wire 5 5" write_reg [4:0] $end
$var reg 1 0 MemToReg_out $end
$var reg 1 / RegWrite_out $end
$var reg 32 6" alu_result_out [31:0] $end
$var reg 32 7" mem_read_data_out [31:0] $end
$var reg 5 8" write_reg_out [4:0] $end
$upscope $end
$scope module pr_id_dual $end
$var wire 1 ! clk $end
$var wire 32 9" instr1_in [31:0] $end
$var wire 32 :" instr2_in [31:0] $end
$var wire 32 ;" pc_in [31:0] $end
$var wire 1 " reset $end
$var reg 32 <" instr1_out [31:0] $end
$var reg 32 =" instr2_out [31:0] $end
$var reg 32 >" pc_out [31:0] $end
$upscope $end
$scope module wb_fw $end
$var wire 1 / RegWrite $end
$var wire 1 ! clk $end
$var wire 1 " reset $end
$var wire 32 ?" write_back_data [31:0] $end
$var wire 5 @" write_reg [4:0] $end
$var reg 1 ' RegWrite_out $end
$var reg 32 A" write_back_data_out [31:0] $end
$var reg 5 B" write_reg_out [4:0] $end
$upscope $end
$upscope $end
$scope begin $ivl_for_loop0 $end
$var integer 32 C" i [31:0] $end
$upscope $end
$upscope $end
$enddefinitions $end
$comment Show the parameter values. $end
$dumpall
$end
#0
$dumpvars
bx C"
bx B"
bx A"
bx @"
bx ?"
bx >"
bx ="
bx <"
bx ;"
bx :"
bx 9"
bx 8"
bx 7"
bx 6"
bx 5"
bx 4"
bx 3"
bx 2"
bx 1"
bx 0"
bx /"
bx ."
bx -"
b0 ,"
bx +"
b10000000 *"
bx )"
bx ("
bx '"
bx &"
bx %"
bx $"
bx #"
bx ""
bx !"
bx ~
bx }
bx |
bx {
bx z
bx y
bx x
bx w
bx v
bx u
bx t
bx s
bx r
bx q
bx p
bx o
bx n
bx m
bx l
xk
bx j
bx i
bx h
xg
bx f
b11 e
b0 d
b0 c
bx b
1a
0`
1_
0^
0]
bx \
bx [
bx Z
bx Y
bx X
bx W
bx V
bx U
bx T
b1000000 S
b0 R
bx Q
bx P
bx O
bx N
bx M
bx L
bx K
b0 J
bx I
bx H
bx G
xF
xE
xD
xC
xB
bx A
bx @
bx ?
bx >
bx =
bx <
bx ;
bx :
bx 9
bx 8
x7
x6
x5
bx 4
bx 3
bx 2
bx 1
x0
x/
bx .
bx -
bx ,
bx +
bx *
bx )
bx (
x'
bx &
bx %
z$
bx #
1"
0!
$end
#5000
0k
b0 u
b0 l
b0 n
b0 p
b0 m
b0 o
b0 r
b0 Z
b0 V
b0 T
b0 U
b0 W
b0 (
b0 ?"
b10001100000000010000000000000000 9
b10001100000000010000000000000000 #"
b10001100000000010000000000000000 ("
b10001100000000100000000000000100 8
b10001100000000100000000000000100 ""
b10001100000000100000000000000100 )"
b0 *
b0 %"
b0 :"
b0 +
b0 $"
b0 9"
b0 )
b0 &"
b0 ;"
b0 <
b0 s
b0 ="
b0 =
b0 t
b0 <"
b0 ;
b0 q
b0 {
b0 >"
b0 K
b0 w
b0 z
b0 L
b0 v
b0 y
b0 x
b0 H
b0 X
b0 }
b0 I
b0 Y
b0 |
b0 G
b0 ~
b0 N
b0 [
b0 b
b0 M
b0 \
b0 @
b0 h
b0 >
b0 j
b0 ."
b0 ?
b0 P
b0 i
b0 -"
0g
b0 A
b0 Q
b0 f
b0 +"
0F
0C
0E
0B
0D
b0 2
b0 1"
b0 1
b0 2"
b0 5"
b0 4
b0 /"
b0 3"
b0 3
b0 0"
b0 4"
06
05
07
b0 ,
b0 8"
b0 @"
b0 .
b0 6"
b0 -
b0 7"
0/
00
b0 %
b0 B"
b0 &
b0 A"
0'
b1000 :
b1000 !"
b0 O
b0 '"
1!
#10000
0!
0"
#15000
b0 9
b0 #"
b0 ("
b0 8
b0 ""
b0 )"
b10000 :
b10000 !"
b1000 O
b1000 '"
b11 >
b11 j
b11 ."
zg
1B
1D
b11 N
b11 [
b11 b
b10001100000000100000000000000100 *
b10001100000000100000000000000100 %"
b10001100000000100000000000000100 :"
b10001100000000010000000000000000 +
b10001100000000010000000000000000 $"
b10001100000000010000000000000000 9"
b1000 )
b1000 &"
b1000 ;"
1!
#20000
0!
#25000
b1 u
b10 l
b1 m
b100011 r
b0 *
b0 %"
b0 :"
b0 +
b0 $"
b0 9"
b10000 )
b10000 &"
b10000 ;"
b10001100000000100000000000000100 <
b10001100000000100000000000000100 s
b10001100000000100000000000000100 ="
b10001100000000010000000000000000 =
b10001100000000010000000000000000 t
b10001100000000010000000000000000 <"
b1000 ;
b1000 q
b1000 {
b1000 >"
b11 A
b11 Q
b11 f
b11 +"
b11 1
b11 2"
b11 5"
15
17
b11000 :
b11000 !"
b10000 O
b10000 '"
1!
#30000
0!
#35000
b0 u
b0 l
b0 m
b0 r
b100000 :
b100000 !"
b11000 O
b11000 '"
b11 ,
b11 8"
b11 @"
1/
10
b11 4
b11 /"
b11 3"
b1000 G
b1000 ~
b10001100000000100000000000000100 K
b10001100000000100000000000000100 w
b10001100000000100000000000000100 z
b10001100000000010000000000000000 L
b10001100000000010000000000000000 v
b10001100000000010000000000000000 y
b1000 x
b0 <
b0 s
b0 ="
b0 =
b0 t
b0 <"
b10000 ;
b10000 q
b10000 {
b10000 >"
b11000 )
b11000 &"
b11000 ;"
1!
#40000
0!
#45000
b1 T
b100011 W
b10000000100000 9
b10000000100000 #"
b10000000100000 ("
b100000000001010000000000001000 8
b100000000001010000000000001000 ""
b100000000001010000000000001000 )"
b100000 )
b100000 &"
b100000 ;"
b11000 ;
b11000 q
b11000 {
b11000 >"
b0 K
b0 w
b0 z
b0 L
b0 v
b0 y
b10000 x
b10001100000000100000000000000100 H
b10001100000000100000000000000100 X
b10001100000000100000000000000100 }
b10001100000000010000000000000000 I
b10001100000000010000000000000000 Y
b10001100000000010000000000000000 |
b10000 G
b10000 ~
b11 .
b11 6"
b11 %
b11 B"
1'
b101000 :
b101000 !"
b100000 O
b100000 '"
1!
#50000
0!
#55000
b1000100001100000100000 9
b1000100001100000100000 #"
b1000100001100000100000 ("
b10101100101000110000000000000000 8
b10101100101000110000000000000000 ""
b10101100101000110000000000000000 )"
b0 T
b0 W
b110000 :
b110000 !"
b101000 O
b101000 '"
b0 H
b0 X
b0 }
b0 I
b0 Y
b0 |
b11000 G
b11000 ~
b11000 x
b100000 ;
b100000 q
b100000 {
b100000 >"
b100000000001010000000000001000 *
b100000000001010000000000001000 %"
b100000000001010000000000001000 :"
b10000000100000 +
b10000000100000 $"
b10000000100000 9"
b101000 )
b101000 &"
b101000 ;"
1!
#60000
0!
#65000
b100 u
b101 l
b100 p
b10000000000100000100000 9
b10000000000100000100000 #"
b10000000000100000100000 ("
b11000000001000000100000 8
b11000000001000000100000 ""
b11000000001000000100000 )"
b10101100101000110000000000000000 *
b10101100101000110000000000000000 %"
b10101100101000110000000000000000 :"
b1000100001100000100000 +
b1000100001100000100000 $"
b1000100001100000100000 9"
b110000 )
b110000 &"
b110000 ;"
b100000000001010000000000001000 <
b100000000001010000000000001000 s
b100000000001010000000000001000 ="
b10000000100000 =
b10000000100000 t
b10000000100000 <"
b101000 ;
b101000 q
b101000 {
b101000 >"
b100000 x
b100000 G
b100000 ~
b111000 :
b111000 !"
b110000 O
b110000 '"
1!
#70000
0!
#75000
1k
b11 u
b100000101001010000000000000100 9
b100000101001010000000000000100 #"
b100000101001010000000000000100 ("
b100000100001000000000000000001 8
b100000100001000000000000000001 ""
b100000100001000000000000000001 )"
b11 l
b101 n
b11 p
b10 m
b1 o
b1000000 :
b1000000 !"
b111000 O
b111000 '"
b101000 G
b101000 ~
b100000000001010000000000001000 K
b100000000001010000000000001000 w
b100000000001010000000000001000 z
b10000000100000 L
b10000000100000 v
b10000000100000 y
b101000 x
b10101100101000110000000000000000 <
b10101100101000110000000000000000 s
b10101100101000110000000000000000 ="
b1000100001100000100000 =
b1000100001100000100000 t
b1000100001100000100000 <"
b110000 ;
b110000 q
b110000 {
b110000 >"
b11000000001000000100000 *
b11000000001000000100000 %"
b11000000001000000100000 :"
b10000000000100000100000 +
b10000000000100000100000 $"
b10000000000100000100000 9"
b111000 )
b111000 &"
b111000 ;"
1!
#80000
0!
#85000
0k
b1 u
b0 l
b11 n
b1 p
b0 m
b10 o
b100000 Z
b100 V
b100000000001110000000000001010 9
b100000000001110000000000001010 #"
b100000000001110000000000001010 ("
b10000100001110000000000000001 8
b10000100001110000000000000001 ""
b10000100001110000000000000001 )"
b100000100001000000000000000001 *
b100000100001000000000000000001 %"
b100000100001000000000000000001 :"
b100000101001010000000000000100 +
b100000101001010000000000000100 $"
b100000101001010000000000000100 9"
b1000000 )
b1000000 &"
b1000000 ;"
b11000000001000000100000 <
b11000000001000000100000 s
b11000000001000000100000 ="
b10000000000100000100000 =
b10000000000100000100000 t
b10000000000100000100000 <"
b111000 ;
b111000 q
b111000 {
b111000 >"
b0 K
b0 w
b0 z
b1000100001100000100000 L
b1000100001100000100000 v
b1000100001100000100000 y
b110000 x
b100000000001010000000000001000 H
b100000000001010000000000001000 X
b100000000001010000000000001000 }
b10000000100000 I
b10000000100000 Y
b10000000100000 |
b110000 G
b110000 ~
b1001000 :
b1001000 !"
b1000000 O
b1000000 '"
1!
#90000
0!
#95000
b101 u
b0 9
b0 #"
b0 ("
b1000000000000000000000001010 8
b1000000000000000000000001010 ""
b1000000000000000000000001010 )"
b11 V
b10 T
b1 U
b100 l
b100 n
b0 p
b101 m
b101 o
b1000 r
b1010000 :
b1010000 !"
b1001000 O
b1001000 '"
b0 H
b0 X
b0 }
b1000100001100000100000 I
b1000100001100000100000 Y
b1000100001100000100000 |
b111000 G
b111000 ~
b11000000001000000100000 K
b11000000001000000100000 w
b11000000001000000100000 z
b10000000000100000100000 L
b10000000000100000100000 v
b10000000000100000100000 y
b111000 x
b100000100001000000000000000001 <
b100000100001000000000000000001 s
b100000100001000000000000000001 ="
b100000101001010000000000000100 =
b100000101001010000000000000100 t
b100000101001010000000000000100 <"
b1000000 ;
b1000000 q
b1000000 {
b1000000 >"
b10000100001110000000000000001 *
b10000100001110000000000000001 %"
b10000100001110000000000000001 :"
b100000000001110000000000001010 +
b100000000001110000000000001010 $"
b100000000001110000000000001010 9"
b1001000 )
b1001000 &"
b1001000 ;"
1!
#100000
0!
#105000
1k
b111 u
b111 l
b111 m
b0 o
b1 V
b0 T
b10 U
b0 8
b0 ""
b0 )"
b1000000000000000000000001010 *
b1000000000000000000000001010 %"
b1000000000000000000000001010 :"
b0 +
b0 $"
b0 9"
b1010000 )
b1010000 &"
b1010000 ;"
b10000100001110000000000000001 <
b10000100001110000000000000001 s
b10000100001110000000000000001 ="
b100000000001110000000000001010 =
b100000000001110000000000001010 t
b100000000001110000000000001010 <"
b1001000 ;
b1001000 q
b1001000 {
b1001000 >"
b100000100001000000000000000001 K
b100000100001000000000000000001 w
b100000100001000000000000000001 z
b100000101001010000000000000100 L
b100000101001010000000000000100 v
b100000101001010000000000000100 y
b1000000 x
b11000000001000000100000 H
b11000000001000000100000 X
b11000000001000000100000 }
b10000000000100000100000 I
b10000000000100000100000 Y
b10000000000100000100000 |
b1000000 G
b1000000 ~
b1011000 :
b1011000 !"
b1010000 O
b1010000 '"
1!
#110000
0!
#115000
0k
b0 u
b100 Z
b0 V
b101 T
b101 U
b1000 W
b0 l
b0 n
b0 m
b0 r
b1100000 :
b1100000 !"
b1011000 O
b1011000 '"
b100000100001000000000000000001 H
b100000100001000000000000000001 X
b100000100001000000000000000001 }
b100000101001010000000000000100 I
b100000101001010000000000000100 Y
b100000101001010000000000000100 |
b1001000 G
b1001000 ~
b0 K
b0 w
b0 z
b100000000001110000000000001010 L
b100000000001110000000000001010 v
b100000000001110000000000001010 y
b1001000 x
b1000000000000000000000001010 <
b1000000000000000000000001010 s
b1000000000000000000000001010 ="
b0 =
b0 t
b0 <"
b1010000 ;
b1010000 q
b1010000 {
b1010000 >"
b0 *
b0 %"
b0 :"
b1011000 )
b1011000 &"
b1011000 ;"
1!
#120000
0!
#125000
b1010 Z
b111 T
b0 U
b1100000 )
b1100000 &"
b1100000 ;"
b0 <
b0 s
b0 ="
b1011000 ;
b1011000 q
b1011000 {
b1011000 >"
b1000000000000000000000001010 K
b1000000000000000000000001010 w
b1000000000000000000000001010 z
b0 L
b0 v
b0 y
b1010000 x
b0 H
b0 X
b0 }
b100000000001110000000000001010 I
b100000000001110000000000001010 Y
b100000000001110000000000001010 |
b1010000 G
b1010000 ~
b1101000 :
b1101000 !"
b1100000 O
b1100000 '"
1!
#130000
0!
#135000
b0 Z
b0 T
b0 W
b1110000 :
b1110000 !"
b1101000 O
b1101000 '"
b1000000000000000000000001010 H
b1000000000000000000000001010 X
b1000000000000000000000001010 }
b0 I
b0 Y
b0 |
b1011000 G
b1011000 ~
b0 K
b0 w
b0 z
b1011000 x
b1100000 ;
b1100000 q
b1100000 {
b1100000 >"
b1101000 )
b1101000 &"
b1101000 ;"
1!
#140000
0!
#145000
b1110000 )
b1110000 &"
b1110000 ;"
b1101000 ;
b1101000 q
b1101000 {
b1101000 >"
b1100000 x
b0 H
b0 X
b0 }
b1100000 G
b1100000 ~
b1111000 :
b1111000 !"
b1110000 O
b1110000 '"
1!
#150000
0!
#155000
b10000000 :
b10000000 !"
b1111000 O
b1111000 '"
b1101000 G
b1101000 ~
b1101000 x
b1110000 ;
b1110000 q
b1110000 {
b1110000 >"
b1111000 )
b1111000 &"
b1111000 ;"
1!
#160000
0!
#165000
b10000000 )
b10000000 &"
b10000000 ;"
b1111000 ;
b1111000 q
b1111000 {
b1111000 >"
b1110000 x
b1110000 G
b1110000 ~
b10001000 :
b10001000 !"
b10000000 O
b10000000 '"
1!
#170000
0!
#175000
b10010000 :
b10010000 !"
b10001000 O
b10001000 '"
b1111000 G
b1111000 ~
b1111000 x
b10000000 ;
b10000000 q
b10000000 {
b10000000 >"
b10001000 )
b10001000 &"
b10001000 ;"
1!
#180000
0!
#185000
b10010000 )
b10010000 &"
b10010000 ;"
b10001000 ;
b10001000 q
b10001000 {
b10001000 >"
b10000000 x
b10000000 G
b10000000 ~
b10011000 :
b10011000 !"
b10010000 O
b10010000 '"
1!
#190000
0!
#195000
b10100000 :
b10100000 !"
b10011000 O
b10011000 '"
b10001000 G
b10001000 ~
b10001000 x
b10010000 ;
b10010000 q
b10010000 {
b10010000 >"
b10011000 )
b10011000 &"
b10011000 ;"
1!
#200000
0!
#205000
b10100000 )
b10100000 &"
b10100000 ;"
b10011000 ;
b10011000 q
b10011000 {
b10011000 >"
b10010000 x
b10010000 G
b10010000 ~
b10101000 :
b10101000 !"
b10100000 O
b10100000 '"
1!
#210000
0!
#215000
b10110000 :
b10110000 !"
b10101000 O
b10101000 '"
b10011000 G
b10011000 ~
b10011000 x
b10100000 ;
b10100000 q
b10100000 {
b10100000 >"
b10101000 )
b10101000 &"
b10101000 ;"
1!
#220000
0!
#225000
b10110000 )
b10110000 &"
b10110000 ;"
b10101000 ;
b10101000 q
b10101000 {
b10101000 >"
b10100000 x
b10100000 G
b10100000 ~
b10111000 :
b10111000 !"
b10110000 O
b10110000 '"
1!
#230000
0!
#235000
b11000000 :
b11000000 !"
b10111000 O
b10111000 '"
b10101000 G
b10101000 ~
b10101000 x
b10110000 ;
b10110000 q
b10110000 {
b10110000 >"
b10111000 )
b10111000 &"
b10111000 ;"
1!
#240000
0!
#245000
b11000000 )
b11000000 &"
b11000000 ;"
b10111000 ;
b10111000 q
b10111000 {
b10111000 >"
b10110000 x
b10110000 G
b10110000 ~
b11001000 :
b11001000 !"
b11000000 O
b11000000 '"
1!
#250000
0!
#255000
b11010000 :
b11010000 !"
b11001000 O
b11001000 '"
b10111000 G
b10111000 ~
b10111000 x
b11000000 ;
b11000000 q
b11000000 {
b11000000 >"
b11001000 )
b11001000 &"
b11001000 ;"
1!
#260000
0!
#265000
b11010000 )
b11010000 &"
b11010000 ;"
b11001000 ;
b11001000 q
b11001000 {
b11001000 >"
b11000000 x
b11000000 G
b11000000 ~
b11011000 :
b11011000 !"
b11010000 O
b11010000 '"
1!
#270000
0!
#275000
b11100000 :
b11100000 !"
b11011000 O
b11011000 '"
b11001000 G
b11001000 ~
b11001000 x
b11010000 ;
b11010000 q
b11010000 {
b11010000 >"
b11011000 )
b11011000 &"
b11011000 ;"
1!
#280000
0!
#285000
b11100000 )
b11100000 &"
b11100000 ;"
b11011000 ;
b11011000 q
b11011000 {
b11011000 >"
b11010000 x
b11010000 G
b11010000 ~
b11101000 :
b11101000 !"
b11100000 O
b11100000 '"
1!
#290000
0!
#295000
b11110000 :
b11110000 !"
b11101000 O
b11101000 '"
b11011000 G
b11011000 ~
b11011000 x
b11100000 ;
b11100000 q
b11100000 {
b11100000 >"
b11101000 )
b11101000 &"
b11101000 ;"
1!
#300000
0!
#305000
b11110000 )
b11110000 &"
b11110000 ;"
b11101000 ;
b11101000 q
b11101000 {
b11101000 >"
b11100000 x
b11100000 G
b11100000 ~
b11111000 :
b11111000 !"
b11110000 O
b11110000 '"
1!
#310000
0!
#315000
b100000000 :
b100000000 !"
b11111000 O
b11111000 '"
b11101000 G
b11101000 ~
b11101000 x
b11110000 ;
b11110000 q
b11110000 {
b11110000 >"
b11111000 )
b11111000 &"
b11111000 ;"
1!
#320000
0!
#325000
b100000000 )
b100000000 &"
b100000000 ;"
b11111000 ;
b11111000 q
b11111000 {
b11111000 >"
b11110000 x
b11110000 G
b11110000 ~
b100001000 :
b100001000 !"
b100000000 O
b100000000 '"
1!
#330000
0!
#335000
b100010000 :
b100010000 !"
b100001000 O
b100001000 '"
b11111000 G
b11111000 ~
b11111000 x
b100000000 ;
b100000000 q
b100000000 {
b100000000 >"
b100001000 )
b100001000 &"
b100001000 ;"
1!
#340000
0!
#345000
b100010000 )
b100010000 &"
b100010000 ;"
b100001000 ;
b100001000 q
b100001000 {
b100001000 >"
b100000000 x
b100000000 G
b100000000 ~
b100011000 :
b100011000 !"
b100010000 O
b100010000 '"
1!
#350000
0!
#355000
b100100000 :
b100100000 !"
b100011000 O
b100011000 '"
b100001000 G
b100001000 ~
b100001000 x
b100010000 ;
b100010000 q
b100010000 {
b100010000 >"
b100011000 )
b100011000 &"
b100011000 ;"
1!
#360000
0!
#365000
b100100000 )
b100100000 &"
b100100000 ;"
b100011000 ;
b100011000 q
b100011000 {
b100011000 >"
b100010000 x
b100010000 G
b100010000 ~
b100101000 :
b100101000 !"
b100100000 O
b100100000 '"
1!
#370000
0!
#375000
b100110000 :
b100110000 !"
b100101000 O
b100101000 '"
b100011000 G
b100011000 ~
b100011000 x
b100100000 ;
b100100000 q
b100100000 {
b100100000 >"
b100101000 )
b100101000 &"
b100101000 ;"
1!
#380000
0!
#385000
b100110000 )
b100110000 &"
b100110000 ;"
b100101000 ;
b100101000 q
b100101000 {
b100101000 >"
b100100000 x
b100100000 G
b100100000 ~
b100111000 :
b100111000 !"
b100110000 O
b100110000 '"
1!
#390000
0!
#395000
b101000000 :
b101000000 !"
b100111000 O
b100111000 '"
b100101000 G
b100101000 ~
b100101000 x
b100110000 ;
b100110000 q
b100110000 {
b100110000 >"
b100111000 )
b100111000 &"
b100111000 ;"
1!
#400000
0!
#405000
b101000000 )
b101000000 &"
b101000000 ;"
b100111000 ;
b100111000 q
b100111000 {
b100111000 >"
b100110000 x
b100110000 G
b100110000 ~
b101001000 :
b101001000 !"
b101000000 O
b101000000 '"
1!
#410000
0!
#415000
b101010000 :
b101010000 !"
b101001000 O
b101001000 '"
b100111000 G
b100111000 ~
b100111000 x
b101000000 ;
b101000000 q
b101000000 {
b101000000 >"
b101001000 )
b101001000 &"
b101001000 ;"
1!
#420000
0!
#425000
b101010000 )
b101010000 &"
b101010000 ;"
b101001000 ;
b101001000 q
b101001000 {
b101001000 >"
b101000000 x
b101000000 G
b101000000 ~
b101011000 :
b101011000 !"
b101010000 O
b101010000 '"
1!
#430000
0!
#435000
b101100000 :
b101100000 !"
b101011000 O
b101011000 '"
b101001000 G
b101001000 ~
b101001000 x
b101010000 ;
b101010000 q
b101010000 {
b101010000 >"
b101011000 )
b101011000 &"
b101011000 ;"
1!
#440000
0!
#445000
b101100000 )
b101100000 &"
b101100000 ;"
b101011000 ;
b101011000 q
b101011000 {
b101011000 >"
b101010000 x
b101010000 G
b101010000 ~
b101101000 :
b101101000 !"
b101100000 O
b101100000 '"
1!
#450000
0!
#455000
b101110000 :
b101110000 !"
b101101000 O
b101101000 '"
b101011000 G
b101011000 ~
b101011000 x
b101100000 ;
b101100000 q
b101100000 {
b101100000 >"
b101101000 )
b101101000 &"
b101101000 ;"
1!
#460000
0!
#465000
b101110000 )
b101110000 &"
b101110000 ;"
b101101000 ;
b101101000 q
b101101000 {
b101101000 >"
b101100000 x
b101100000 G
b101100000 ~
b101111000 :
b101111000 !"
b101110000 O
b101110000 '"
1!
#470000
0!
#475000
b110000000 :
b110000000 !"
b101111000 O
b101111000 '"
b101101000 G
b101101000 ~
b101101000 x
b101110000 ;
b101110000 q
b101110000 {
b101110000 >"
b101111000 )
b101111000 &"
b101111000 ;"
1!
#480000
0!
#485000
b110000000 )
b110000000 &"
b110000000 ;"
b101111000 ;
b101111000 q
b101111000 {
b101111000 >"
b101110000 x
b101110000 G
b101110000 ~
b110001000 :
b110001000 !"
b110000000 O
b110000000 '"
1!
#490000
0!
#495000
b110010000 :
b110010000 !"
b110001000 O
b110001000 '"
b101111000 G
b101111000 ~
b101111000 x
b110000000 ;
b110000000 q
b110000000 {
b110000000 >"
b110001000 )
b110001000 &"
b110001000 ;"
1!
#500000
0!
#505000
b110010000 )
b110010000 &"
b110010000 ;"
b110001000 ;
b110001000 q
b110001000 {
b110001000 >"
b110000000 x
b110000000 G
b110000000 ~
b110011000 :
b110011000 !"
b110010000 O
b110010000 '"
1!
#510000
0!
#515000
b110100000 :
b110100000 !"
b110011000 O
b110011000 '"
b110001000 G
b110001000 ~
b110001000 x
b110010000 ;
b110010000 q
b110010000 {
b110010000 >"
b110011000 )
b110011000 &"
b110011000 ;"
1!
#520000
0!
#525000
b110100000 )
b110100000 &"
b110100000 ;"
b110011000 ;
b110011000 q
b110011000 {
b110011000 >"
b110010000 x
b110010000 G
b110010000 ~
b110101000 :
b110101000 !"
b110100000 O
b110100000 '"
1!
#530000
0!
#535000
b110110000 :
b110110000 !"
b110101000 O
b110101000 '"
b110011000 G
b110011000 ~
b110011000 x
b110100000 ;
b110100000 q
b110100000 {
b110100000 >"
b110101000 )
b110101000 &"
b110101000 ;"
1!
#540000
0!
#545000
b110110000 )
b110110000 &"
b110110000 ;"
b110101000 ;
b110101000 q
b110101000 {
b110101000 >"
b110100000 x
b110100000 G
b110100000 ~
b110111000 :
b110111000 !"
b110110000 O
b110110000 '"
1!
#550000
0!
#555000
b111000000 :
b111000000 !"
b110111000 O
b110111000 '"
b110101000 G
b110101000 ~
b110101000 x
b110110000 ;
b110110000 q
b110110000 {
b110110000 >"
b110111000 )
b110111000 &"
b110111000 ;"
1!
#560000
0!
#565000
b111000000 )
b111000000 &"
b111000000 ;"
b110111000 ;
b110111000 q
b110111000 {
b110111000 >"
b110110000 x
b110110000 G
b110110000 ~
b111001000 :
b111001000 !"
b111000000 O
b111000000 '"
1!
#570000
0!
#575000
b111010000 :
b111010000 !"
b111001000 O
b111001000 '"
b110111000 G
b110111000 ~
b110111000 x
b111000000 ;
b111000000 q
b111000000 {
b111000000 >"
b111001000 )
b111001000 &"
b111001000 ;"
1!
#580000
0!
