superscaler/wave.vcd
$date
	Thu Feb  6 10:29:35 2025
$end
$version
	Icarus Verilog
$end
$timescale
	1ps
$end
$scope module tb_MIPS_Processor $end
$var reg 1 ! clk $end
$var reg 1 " reset $end
$scope function dMem $end
$var integer 32 # idx [31:0] $end
$upscope $end
$scope module uut $end
$var wire 1 ! clk $end
$var wire 1 $ exmr_zero $end
$var wire 1 " reset $end
$var wire 5 % wbfw_write_reg [4:0] $end
$var wire 32 & wbfw_write_data [31:0] $end
$var wire 1 ' wbfw_RegWrite $end
$var wire 32 ( wb_write_data [31:0] $end
$var wire 32 ) pr_pc [31:0] $end
$var wire 32 * pr_instr2 [31:0] $end
$var wire 32 + pr_instr1 [31:0] $end
$var wire 5 , mwwb_write_reg [4:0] $end
$var wire 32 - mwwb_mem_read_data [31:0] $end
$var wire 32 . mwwb_alu_result [31:0] $end
$var wire 1 / mwwb_RegWrite $end
$var wire 1 0 mwwb_MemToReg $end
$var wire 5 1 mrmw_write_reg [4:0] $end
$var wire 32 2 mrmw_store_data_out [31:0] $end
$var wire 32 3 mrmw_mem_read_data [31:0] $end
$var wire 32 4 mrmw_alu_result [31:0] $end
$var wire 1 5 mrmw_RegWrite $end
$var wire 1 6 mrmw_MemWrite $end
$var wire 1 7 mrmw_MemToReg $end
$var wire 32 8 instr2 [31:0] $end
$var wire 32 9 instr1 [31:0] $end
$var wire 32 : if_pc_plus8 [31:0] $end
$var wire 32 ; id_pc [31:0] $end
$var wire 32 < id_instr2 [31:0] $end
$var wire 32 = id_instr1 [31:0] $end
$var wire 5 > exmr_write_reg [4:0] $end
$var wire 32 ? exmr_data [31:0] $end
$var wire 32 @ exmr_branch_target [31:0] $end
$var wire 32 A exmr_alu_result [31:0] $end
$var wire 1 B exmr_RegWrite $end
$var wire 1 C exmr_MemWrite $end
$var wire 1 D exmr_MemToReg $end
$var wire 1 E exmr_MemRead $end
$var wire 1 F exmr_Branch $end
$var wire 32 G ex_pc [31:0] $end
$var wire 32 H ex_instr2 [31:0] $end
$var wire 32 I ex_instr1 [31:0] $end
$var wire 32 J dm_data [31:0] $end
$var wire 32 K decoded2 [31:0] $end
$var wire 32 L decoded1 [31:0] $end
$var wire 32 M alu_out2 [31:0] $end
$var wire 32 N alu_out1 [31:0] $end
$var reg 32 O PC [31:0] $end
$scope module dmem $end
$var wire 1 ! clk $end
$var wire 32 P write_data [31:0] $end
$var wire 32 Q addr [31:0] $end
$var wire 1 C MemWrite $end
$var wire 1 D MemRead $end
$var reg 32 R read_data [31:0] $end
$var integer 32 S i [31:0] $end
$upscope $end
$scope module ex_dual $end
$var wire 1 ! clk $end
$var wire 1 " reset $end
$var wire 32 T instr2_in [31:0] $end
$var wire 32 U instr1_in [31:0] $end
$var reg 32 V alu_out1 [31:0] $end
$var reg 32 W alu_out2 [31:0] $end
$var reg 32 X fib1_lane1 [31:0] $end
$var reg 32 Y fib1_lane2 [31:0] $end
$var reg 32 Z fib2_lane1 [31:0] $end
$var reg 32 [ fib2_lane2 [31:0] $end
$upscope $end
$scope module ex_mr $end
$var wire 1 \ Branch $end
$var wire 1 ] MemRead $end
$var wire 1 ^ MemToReg $end
$var wire 1 _ MemWrite $end
$var wire 1 ` RegWrite $end
$var wire 32 a alu_result [31:0] $end
$var wire 1 $ alu_zero $end
$var wire 32 b branch_target [31:0] $end
$var wire 1 ! clk $end
$var wire 32 c pr_read_data2 [31:0] $end
$var wire 1 " reset $end
$var wire 5 d write_reg [4:0] $end
$var reg 1 F Branch_out $end
$var reg 1 E MemRead_out $end
$var reg 1 D MemToReg_out $end
$var reg 1 C MemWrite_out $end
$var reg 1 B RegWrite_out $end
$var reg 32 e alu_result_out [31:0] $end
$var reg 1 f alu_zero_out $end
$var reg 32 g branch_target_out [31:0] $end
$var reg 32 h pr_read_data2_out [31:0] $end
$var reg 5 i write_reg_out [4:0] $end
$upscope $end
$scope module id_dual $end
$var wire 1 ! clk $end
$var wire 1 j dependency $end
$var wire 1 " reset $end
$var wire 5 k rt2 [4:0] $end
$var wire 5 l rt1 [4:0] $end
$var wire 5 m rs2 [4:0] $end
$var wire 5 n rs1 [4:0] $end
$var wire 5 o rd1 [4:0] $end
$var wire 32 p pc_in [31:0] $end
$var wire 6 q opcode1 [5:0] $end
$var wire 32 r instr2_in [31:0] $end
$var wire 32 s instr1_in [31:0] $end
$var wire 5 t dest1 [4:0] $end
$var reg 32 u decoded1 [31:0] $end
$var reg 32 v decoded2 [31:0] $end
$var reg 32 w pc_out [31:0] $end
$upscope $end
$scope module id_ex_dual $end
$var wire 1 ! clk $end
$var wire 32 x decoded1_in [31:0] $end
$var wire 32 y decoded2_in [31:0] $end
$var wire 1 " reset $end
$var wire 32 z pc_in [31:0] $end
$var reg 32 { ex_instr1 [31:0] $end
$var reg 32 | ex_instr2 [31:0] $end
$var reg 32 } pc_out [31:0] $end
$upscope $end
$scope module if_pr_dual $end
$var wire 1 ! clk $end
$var wire 32 ~ pc_in [31:0] $end
$var wire 1 " reset $end
$var wire 32 !" instr2_in [31:0] $end
$var wire 32 "" instr1_in [31:0] $end
$var reg 32 #" instr1_out [31:0] $end
$var reg 32 $" instr2_out [31:0] $end
$var reg 32 %" pc_out [31:0] $end
$upscope $end
$scope module imem_dual $end
$var wire 32 &" addr [31:0] $end
$var wire 32 '" instr1 [31:0] $end
$var wire 32 (" instr2 [31:0] $end
$var integer 32 )" i [31:0] $end
$upscope $end
$scope module mr_mw $end
$var wire 1 D MemToReg $end
$var wire 1 C MemWrite $end
$var wire 1 B RegWrite $end
$var wire 32 *" alu_result [31:0] $end
$var wire 1 ! clk $end
$var wire 32 +" mem_read_data [31:0] $end
$var wire 1 " reset $end
$var wire 32 ," store_data [31:0] $end
$var wire 5 -" write_reg [4:0] $end
$var reg 1 7 MemToReg_out $end
$var reg 1 6 MemWrite_out $end
$var reg 1 5 RegWrite_out $end
$var reg 32 ." alu_result_out [31:0] $end
$var reg 32 /" mem_read_data_out [31:0] $end
$var reg 32 0" store_data_out [31:0] $end
$var reg 5 1" write_reg_out [4:0] $end
$upscope $end
$scope module mw_wb $end
$var wire 1 7 MemToReg $end
$var wire 1 5 RegWrite $end
$var wire 32 2" alu_result [31:0] $end
$var wire 1 ! clk $end
$var wire 32 3" mem_read_data [31:0] $end
$var wire 1 " reset $end
$var wire 5 4" write_reg [4:0] $end
$var reg 1 0 MemToReg_out $end
$var reg 1 / RegWrite_out $end
$var reg 32 5" alu_result_out [31:0] $end
$var reg 32 6" mem_read_data_out [31:0] $end
$var reg 5 7" write_reg_out [4:0] $end
$upscope $end
$scope module pr_id_dual $end
$var wire 1 ! clk $end
$var wire 32 8" instr1_in [31:0] $end
$var wire 32 9" instr2_in [31:0] $end
$var wire 32 :" pc_in [31:0] $end
$var wire 1 " reset $end
$var reg 32 ;" instr1_out [31:0] $end
$var reg 32 <" instr2_out [31:0] $end
$var reg 32 =" pc_out [31:0] $end
$upscope $end
$scope module wb_fw $end
$var wire 1 / RegWrite $end
$var wire 1 ! clk $end
$var wire 1 " reset $end
$var wire 32 >" write_back_data [31:0] $end
$var wire 5 ?" write_reg [4:0] $end
$var reg 1 ' RegWrite_out $end
$var reg 32 @" write_back_data_out [31:0] $end
$var reg 5 A" write_reg_out [4:0] $end
$upscope $end
$upscope $end
$scope begin $ivl_for_loop0 $end
$var integer 32 B" i [31:0] $end
$upscope $end
$upscope $end
$enddefinitions $end
$comment Show the parameter values. $end
$dumpall
$end
#0
$dumpvars
bx B"
bx A"
bx @"
bx ?"
bx >"
bx ="
bx <"
bx ;"
bx :"
bx 9"
bx 8"
bx 7"
bx 6"
bx 5"
bx 4"
bx 3"
bx 2"
bx 1"
bx 0"
bx /"
bx ."
bx -"
bx ,"
b0 +"
bx *"
b10000000 )"
bx ("
bx '"
bx &"
bx %"
bx $"
bx #"
bx ""
bx !"
bx ~
bx }
bx |
bx {
bx z
bx y
bx x
bx w
bx v
bx u
bx t
bx s
bx r
bx q
bx p
bx o
bx n
bx m
bx l
bx k
xj
bx i
bx h
bx g
xf
bx e
b11 d
b0 c
b0 b
bx a
1`
0_
1^
0]
0\
bx [
bx Z
bx Y
bx X
bx W
bx V
bx U
bx T
b1000000 S
b0 R
bx Q
bx P
bx O
bx N
bx M
bx L
bx K
b0 J
bx I
bx H
bx G
xF
xE
xD
xC
xB
bx A
bx @
bx ?
bx >
bx =
bx <
bx ;
bx :
bx 9
bx 8
x7
x6
x5
bx 4
bx 3
bx 2
bx 1
x0
x/
bx .
bx -
bx ,
bx +
bx *
bx )
bx (
x'
bx &
bx %
z$
bx #
1"
0!
$end
#5000
0j
b0 t
b0 k
b0 m
b0 o
b0 l
b0 n
b0 q
b0 (
b0 >"
b10001100000000010000000000000000 9
b10001100000000010000000000000000 ""
b10001100000000010000000000000000 '"
b10001100000000100000000000000100 8
b10001100000000100000000000000100 !"
b10001100000000100000000000000100 ("
b0 *
b0 $"
b0 9"
b0 +
b0 #"
b0 8"
b0 )
b0 %"
b0 :"
b0 <
b0 r
b0 <"
b0 =
b0 s
b0 ;"
b0 ;
b0 p
b0 z
b0 ="
b0 K
b0 v
b0 y
b0 L
b0 u
b0 x
b0 w
b0 H
b0 T
b0 |
b0 I
b0 U
b0 {
b0 G
b0 }
b0 M
b0 W
b0 [
b0 Y
b0 N
b0 V
b0 a
b1 Z
b0 X
b0 @
b0 g
b0 >
b0 i
b0 -"
b0 ?
b0 P
b0 h
b0 ,"
0f
b0 A
b0 Q
b0 e
b0 *"
0F
0C
0E
0B
0D
b0 2
b0 0"
b0 1
b0 1"
b0 4"
b0 4
b0 ."
b0 2"
b0 3
b0 /"
b0 3"
06
05
07
b0 ,
b0 7"
b0 ?"
b0 .
b0 5"
b0 -
b0 6"
0/
00
b0 %
b0 A"
b0 &
b0 @"
0'
b1000 :
b1000 ~
b0 O
b0 &"
1!
#10000
0!
0"
#15000
b0 9
b0 ""
b0 '"
b0 8
b0 !"
b0 ("
b10000 :
b10000 ~
b1000 O
b1000 &"
b11 >
b11 i
b11 -"
zf
1B
1D
b10001100000000100000000000000100 *
b10001100000000100000000000000100 $"
b10001100000000100000000000000100 9"
b10001100000000010000000000000000 +
b10001100000000010000000000000000 #"
b10001100000000010000000000000000 8"
b1000 )
b1000 %"
b1000 :"
1!
#20000
0!
#25000
b1 t
b10 k
b1 l
b100011 q
b0 *
b0 $"
b0 9"
b0 +
b0 #"
b0 8"
b10000 )
b10000 %"
b10000 :"
b10001100000000100000000000000100 <
b10001100000000100000000000000100 r
b10001100000000100000000000000100 <"
b10001100000000010000000000000000 =
b10001100000000010000000000000000 s
b10001100000000010000000000000000 ;"
b1000 ;
b1000 p
b1000 z
b1000 ="
b11 1
b11 1"
b11 4"
15
17
b11000 :
b11000 ~
b10000 O
b10000 &"
1!
#30000
0!
#35000
b0 t
b0 k
b0 l
b0 q
b100000 :
b100000 ~
b11000 O
b11000 &"
b11 ,
b11 7"
b11 ?"
1/
10
b1000 G
b1000 }
b10001100000000100000000000000100 K
b10001100000000100000000000000100 v
b10001100000000100000000000000100 y
b10001100000000010000000000000000 L
b10001100000000010000000000000000 u
b10001100000000010000000000000000 x
b1000 w
b0 <
b0 r
b0 <"
b0 =
b0 s
b0 ;"
b10000 ;
b10000 p
b10000 z
b10000 ="
b11000 )
b11000 %"
b11000 :"
1!
#40000
0!
#45000
b10000000100000 9
b10000000100000 ""
b10000000100000 '"
b100000000001010000000000001000 8
b100000000001010000000000001000 !"
b100000000001010000000000001000 ("
b100000 )
b100000 %"
b100000 :"
b11000 ;
b11000 p
b11000 z
b11000 ="
b0 K
b0 v
b0 y
b0 L
b0 u
b0 x
b10000 w
b10001100000000100000000000000100 H
b10001100000000100000000000000100 T
b10001100000000100000000000000100 |
b10001100000000010000000000000000 I
b10001100000000010000000000000000 U
b10001100000000010000000000000000 {
b10000 G
b10000 }
b11 %
b11 A"
1'
b101000 :
b101000 ~
b100000 O
b100000 &"
1!
#50000
0!
#55000
b1000100001100000100000 9
b1000100001100000100000 ""
b1000100001100000100000 '"
b10101100101000110000000000000000 8
b10101100101000110000000000000000 !"
b10101100101000110000000000000000 ("
b110000 :
b110000 ~
b101000 O
b101000 &"
b1 X
b1 N
b1 V
b1 a
b0 H
b0 T
b0 |
b0 I
b0 U
b0 {
b11000 G
b11000 }
b11000 w
b100000 ;
b100000 p
b100000 z
b100000 ="
b100000000001010000000000001000 *
b100000000001010000000000001000 $"
b100000000001010000000000001000 9"
b10000000100000 +
b10000000100000 #"
b10000000100000 8"
b101000 )
b101000 %"
b101000 :"
1!
#60000
0!
#65000
b100 t
b101 k
b100 o
b10000000000100000100000 9
b10000000000100000100000 ""
b10000000000100000100000 '"
b11000000001000000100000 8
b11000000001000000100000 !"
b11000000001000000100000 ("
b10101100101000110000000000000000 *
b10101100101000110000000000000000 $"
b10101100101000110000000000000000 9"
b1000100001100000100000 +
b1000100001100000100000 #"
b1000100001100000100000 8"
b110000 )
b110000 %"
b110000 :"
b100000000001010000000000001000 <
b100000000001010000000000001000 r
b100000000001010000000000001000 <"
b10000000100000 =
b10000000100000 s
b10000000100000 ;"
b101000 ;
b101000 p
b101000 z
b101000 ="
b100000 w
b100000 G
b100000 }
b1 A
b1 Q
b1 e
b1 *"
b111000 :
b111000 ~
b110000 O
b110000 &"
1!
#70000
0!
#75000
1j
b11 t
b100000101001010000000000000100 9
b100000101001010000000000000100 ""
b100000101001010000000000000100 '"
b100000100001000000000000000001 8
b100000100001000000000000000001 !"
b100000100001000000000000000001 ("
b11 k
b101 m
b11 o
b10 l
b1 n
b1000000 :
b1000000 ~
b111000 O
b111000 &"
b1 4
b1 ."
b1 2"
b101000 G
b101000 }
b100000000001010000000000001000 K
b100000000001010000000000001000 v
b100000000001010000000000001000 y
b10000000100000 L
b10000000100000 u
b10000000100000 x
b101000 w
b10101100101000110000000000000000 <
b10101100101000110000000000000000 r
b10101100101000110000000000000000 <"
b1000100001100000100000 =
b1000100001100000100000 s
b1000100001100000100000 ;"
b110000 ;
b110000 p
b110000 z
b110000 ="
b11000000001000000100000 *
b11000000001000000100000 $"
b11000000001000000100000 9"
b10000000000100000100000 +
b10000000000100000100000 #"
b10000000000100000100000 8"
b111000 )
b111000 %"
b111000 :"
1!
#80000
0!
#85000
0j
b1 t
b0 k
b11 m
b1 o
b0 l
b10 n
b100000000001110000000000001010 9
b100000000001110000000000001010 ""
b100000000001110000000000001010 '"
b10000100001110000000000000001 8
b10000100001110000000000000001 !"
b10000100001110000000000000001 ("
b100000100001000000000000000001 *
b100000100001000000000000000001 $"
b100000100001000000000000000001 9"
b100000101001010000000000000100 +
b100000101001010000000000000100 #"
b100000101001010000000000000100 8"
b1000000 )
b1000000 %"
b1000000 :"
b11000000001000000100000 <
b11000000001000000100000 r
b11000000001000000100000 <"
b10000000000100000100000 =
b10000000000100000100000 s
b10000000000100000100000 ;"
b111000 ;
b111000 p
b111000 z
b111000 ="
b0 K
b0 v
b0 y
b1000100001100000100000 L
b1000100001100000100000 u
b1000100001100000100000 x
b110000 w
b100000000001010000000000001000 H
b100000000001010000000000001000 T
b100000000001010000000000001000 |
b10000000100000 I
b10000000100000 U
b10000000100000 {
b110000 G
b110000 }
b1 .
b1 5"
b1001000 :
b1001000 ~
b1000000 O
b1000000 &"
1!
#90000
0!
#95000
b101 t
b0 9
b0 ""
b0 '"
b1000000000000000000000001010 8
b1000000000000000000000001010 !"
b1000000000000000000000001010 ("
b100 k
b100 m
b0 o
b101 l
b101 n
b1000 q
b1010000 :
b1010000 ~
b1001000 O
b1001000 &"
b10 Z
b10 N
b10 V
b10 a
b0 H
b0 T
b0 |
b1000100001100000100000 I
b1000100001100000100000 U
b1000100001100000100000 {
b111000 G
b111000 }
b11000000001000000100000 K
b11000000001000000100000 v
b11000000001000000100000 y
b10000000000100000100000 L
b10000000000100000100000 u
b10000000000100000100000 x
b111000 w
b100000100001000000000000000001 <
b100000100001000000000000000001 r
b100000100001000000000000000001 <"
b100000101001010000000000000100 =
b100000101001010000000000000100 s
b100000101001010000000000000100 ;"
b1000000 ;
b1000000 p
b1000000 z
b1000000 ="
b10000100001110000000000000001 *
b10000100001110000000000000001 $"
b10000100001110000000000000001 9"
b100000000001110000000000001010 +
b100000000001110000000000001010 #"
b100000000001110000000000001010 8"
b1001000 )
b1001000 %"
b1001000 :"
1!
#100000
0!
#105000
1j
b111 t
b111 k
b111 l
b0 n
b0 8
b0 !"
b0 ("
b1000000000000000000000001010 *
b1000000000000000000000001010 $"
b1000000000000000000000001010 9"
b0 +
b0 #"
b0 8"
b1010000 )
b1010000 %"
b1010000 :"
b10000100001110000000000000001 <
b10000100001110000000000000001 r
b10000100001110000000000000001 <"
b100000000001110000000000001010 =
b100000000001110000000000001010 s
b100000000001110000000000001010 ;"
b1001000 ;
b1001000 p
b1001000 z
b1001000 ="
b100000100001000000000000000001 K
b100000100001000000000000000001 v
b100000100001000000000000000001 y
b100000101001010000000000000100 L
b100000101001010000000000000100 u
b100000101001010000000000000100 x
b1000000 w
b11000000001000000100000 H
b11000000001000000100000 T
b11000000001000000100000 |
b10000000000100000100000 I
b10000000000100000100000 U
b10000000000100000100000 {
b1000000 G
b1000000 }
b11 Z
b10 X
b11 N
b11 V
b11 a
b10 A
b10 Q
b10 e
b10 *"
b1011000 :
b1011000 ~
b1010000 O
b1010000 &"
1!
#110000
0!
#115000
0j
b0 t
b0 k
b0 m
b0 l
b0 q
b1100000 :
b1100000 ~
b1011000 O
b1011000 &"
b10 4
b10 ."
b10 2"
b11 A
b11 Q
b11 e
b11 *"
b101 Z
b11 X
b101 N
b101 V
b101 a
b100000100001000000000000000001 H
b100000100001000000000000000001 T
b100000100001000000000000000001 |
b100000101001010000000000000100 I
b100000101001010000000000000100 U
b100000101001010000000000000100 {
b1001000 G
b1001000 }
b0 K
b0 v
b0 y
b100000000001110000000000001010 L
b100000000001110000000000001010 u
b100000000001110000000000001010 x
b1001000 w
b1000000000000000000000001010 <
b1000000000000000000000001010 r
b1000000000000000000000001010 <"
b0 =
b0 s
b0 ;"
b1010000 ;
b1010000 p
b1010000 z
b1010000 ="
b0 *
b0 $"
b0 9"
b1011000 )
b1011000 %"
b1011000 :"
1!
#120000
0!
#125000
b1 J
b1 R
b1 +"
b1100000 )
b1100000 %"
b1100000 :"
b0 <
b0 r
b0 <"
b1011000 ;
b1011000 p
b1011000 z
b1011000 ="
b1000000000000000000000001010 K
b1000000000000000000000001010 v
b1000000000000000000000001010 y
b0 L
b0 u
b0 x
b1010000 w
b0 H
b0 T
b0 |
b100000000001110000000000001010 I
b100000000001110000000000001010 U
b100000000001110000000000001010 {
b1010000 G
b1010000 }
b1000 Z
b101 X
b1000 N
b1000 V
b1000 a
b101 A
b101 Q
b101 e
b101 *"
b11 4
b11 ."
b11 2"
b10 .
b10 5"
b1101000 :
b1101000 ~
b1100000 O
b1100000 &"
1!
#130000
0!
#135000
b0 J
b0 R
b0 +"
b1110000 :
b1110000 ~
b1101000 O
b1101000 &"
b11 .
b11 5"
b101 4
b101 ."
b101 2"
b1 3
b1 /"
b1 3"
b1000 A
b1000 Q
b1000 e
b1000 *"
b1101 Z
b1000 X
b1101 N
b1101 V
b1101 a
b1000000000000000000000001010 H
b1000000000000000000000001010 T
b1000000000000000000000001010 |
b0 I
b0 U
b0 {
b1011000 G
b1011000 }
b0 K
b0 v
b0 y
b1011000 w
b1100000 ;
b1100000 p
b1100000 z
b1100000 ="
b1101000 )
b1101000 %"
b1101000 :"
1!
#140000
0!
#145000
b1 (
b1 >"
b1110000 )
b1110000 %"
b1110000 :"
b1101000 ;
b1101000 p
b1101000 z
b1101000 ="
b1100000 w
b0 H
b0 T
b0 |
b1100000 G
b1100000 }
b1101 A
b1101 Q
b1101 e
b1101 *"
b1000 4
b1000 ."
b1000 2"
b0 3
b0 /"
b0 3"
b101 .
b101 5"
b1 -
b1 6"
b1111000 :
b1111000 ~
b1110000 O
b1110000 &"
1!
#150000
0!
#155000
b0 (
b0 >"
b10000000 :
b10000000 ~
b1111000 O
b1111000 &"
b1 &
b1 @"
b1000 .
b1000 5"
b0 -
b0 6"
b1101 4
b1101 ."
b1101 2"
b1101000 G
b1101000 }
b1101000 w
b1110000 ;
b1110000 p
b1110000 z
b1110000 ="
b1111000 )
b1111000 %"
b1111000 :"
1!
#160000
0!
#165000
b10000000 )
b10000000 %"
b10000000 :"
b1111000 ;
b1111000 p
b1111000 z
b1111000 ="
b1110000 w
b1110000 G
b1110000 }
b1101 .
b1101 5"
b0 &
b0 @"
b10001000 :
b10001000 ~
b10000000 O
b10000000 &"
1!
#170000
0!
#175000
b10010000 :
b10010000 ~
b10001000 O
b10001000 &"
b1111000 G
b1111000 }
b1111000 w
b10000000 ;
b10000000 p
b10000000 z
b10000000 ="
b10001000 )
b10001000 %"
b10001000 :"
1!
#180000
0!
#185000
b10010000 )
b10010000 %"
b10010000 :"
b10001000 ;
b10001000 p
b10001000 z
b10001000 ="
b10000000 w
b10000000 G
b10000000 }
b10011000 :
b10011000 ~
b10010000 O
b10010000 &"
1!
#190000
0!
#195000
b10100000 :
b10100000 ~
b10011000 O
b10011000 &"
b10001000 G
b10001000 }
b10001000 w
b10010000 ;
b10010000 p
b10010000 z
b10010000 ="
b10011000 )
b10011000 %"
b10011000 :"
1!
#200000
0!
#205000
b10100000 )
b10100000 %"
b10100000 :"
b10011000 ;
b10011000 p
b10011000 z
b10011000 ="
b10010000 w
b10010000 G
b10010000 }
b10101000 :
b10101000 ~
b10100000 O
b10100000 &"
1!
#210000
0!
#215000
b10110000 :
b10110000 ~
b10101000 O
b10101000 &"
b10011000 G
b10011000 }
b10011000 w
b10100000 ;
b10100000 p
b10100000 z
b10100000 ="
b10101000 )
b10101000 %"
b10101000 :"
1!
#220000
0!
#225000
b10110000 )
b10110000 %"
b10110000 :"
b10101000 ;
b10101000 p
b10101000 z
b10101000 ="
b10100000 w
b10100000 G
b10100000 }
b10111000 :
b10111000 ~
b10110000 O
b10110000 &"
1!
#230000
0!
#235000
b11000000 :
b11000000 ~
b10111000 O
b10111000 &"
b10101000 G
b10101000 }
b10101000 w
b10110000 ;
b10110000 p
b10110000 z
b10110000 ="
b10111000 )
b10111000 %"
b10111000 :"
1!
#240000
0!
#245000
b11000000 )
b11000000 %"
b11000000 :"
b10111000 ;
b10111000 p
b10111000 z
b10111000 ="
b10110000 w
b10110000 G
b10110000 }
b11001000 :
b11001000 ~
b11000000 O
b11000000 &"
1!
#250000
0!
#255000
b11010000 :
b11010000 ~
b11001000 O
b11001000 &"
b10111000 G
b10111000 }
b10111000 w
b11000000 ;
b11000000 p
b11000000 z
b11000000 ="
b11001000 )
b11001000 %"
b11001000 :"
1!
#260000
0!
#265000
b11010000 )
b11010000 %"
b11010000 :"
b11001000 ;
b11001000 p
b11001000 z
b11001000 ="
b11000000 w
b11000000 G
b11000000 }
b11011000 :
b11011000 ~
b11010000 O
b11010000 &"
1!
#270000
0!
#275000
b11100000 :
b11100000 ~
b11011000 O
b11011000 &"
b11001000 G
b11001000 }
b11001000 w
b11010000 ;
b11010000 p
b11010000 z
b11010000 ="
b11011000 )
b11011000 %"
b11011000 :"
1!
#280000
0!
#285000
b11100000 )
b11100000 %"
b11100000 :"
b11011000 ;
b11011000 p
b11011000 z
b11011000 ="
b11010000 w
b11010000 G
b11010000 }
b11101000 :
b11101000 ~
b11100000 O
b11100000 &"
1!
#290000
0!
#295000
b11110000 :
b11110000 ~
b11101000 O
b11101000 &"
b11011000 G
b11011000 }
b11011000 w
b11100000 ;
b11100000 p
b11100000 z
b11100000 ="
b11101000 )
b11101000 %"
b11101000 :"
1!
#300000
0!
#305000
b11110000 )
b11110000 %"
b11110000 :"
b11101000 ;
b11101000 p
b11101000 z
b11101000 ="
b11100000 w
b11100000 G
b11100000 }
b11111000 :
b11111000 ~
b11110000 O
b11110000 &"
1!
#310000
0!
#315000
b100000000 :
b100000000 ~
b11111000 O
b11111000 &"
b11101000 G
b11101000 }
b11101000 w
b11110000 ;
b11110000 p
b11110000 z
b11110000 ="
b11111000 )
b11111000 %"
b11111000 :"
1!
#320000
0!
#325000
b100000000 )
b100000000 %"
b100000000 :"
b11111000 ;
b11111000 p
b11111000 z
b11111000 ="
b11110000 w
b11110000 G
b11110000 }
b100001000 :
b100001000 ~
b100000000 O
b100000000 &"
1!
#330000
0!
#335000
b100010000 :
b100010000 ~
b100001000 O
b100001000 &"
b11111000 G
b11111000 }
b11111000 w
b100000000 ;
b100000000 p
b100000000 z
b100000000 ="
b100001000 )
b100001000 %"
b100001000 :"
1!
#340000
0!
#345000
b100010000 )
b100010000 %"
b100010000 :"
b100001000 ;
b100001000 p
b100001000 z
b100001000 ="
b100000000 w
b100000000 G
b100000000 }
b100011000 :
b100011000 ~
b100010000 O
b100010000 &"
1!
#350000
0!
#355000
b100100000 :
b100100000 ~
b100011000 O
b100011000 &"
b100001000 G
b100001000 }
b100001000 w
b100010000 ;
b100010000 p
b100010000 z
b100010000 ="
b100011000 )
b100011000 %"
b100011000 :"
1!
#360000
0!
#365000
b100100000 )
b100100000 %"
b100100000 :"
b100011000 ;
b100011000 p
b100011000 z
b100011000 ="
b100010000 w
b100010000 G
b100010000 }
b100101000 :
b100101000 ~
b100100000 O
b100100000 &"
1!
#370000
0!
#375000
b100110000 :
b100110000 ~
b100101000 O
b100101000 &"
b100011000 G
b100011000 }
b100011000 w
b100100000 ;
b100100000 p
b100100000 z
b100100000 ="
b100101000 )
b100101000 %"
b100101000 :"
1!
#380000
0!
#385000
b100110000 )
b100110000 %"
b100110000 :"
b100101000 ;
b100101000 p
b100101000 z
b100101000 ="
b100100000 w
b100100000 G
b100100000 }
b100111000 :
b100111000 ~
b100110000 O
b100110000 &"
1!
#390000
0!
#395000
b101000000 :
b101000000 ~
b100111000 O
b100111000 &"
b100101000 G
b100101000 }
b100101000 w
b100110000 ;
b100110000 p
b100110000 z
b100110000 ="
b100111000 )
b100111000 %"
b100111000 :"
1!
#400000
0!
#405000
b101000000 )
b101000000 %"
b101000000 :"
b100111000 ;
b100111000 p
b100111000 z
b100111000 ="
b100110000 w
b100110000 G
b100110000 }
b101001000 :
b101001000 ~
b101000000 O
b101000000 &"
1!
#410000
0!
#415000
b101010000 :
b101010000 ~
b101001000 O
b101001000 &"
b100111000 G
b100111000 }
b100111000 w
b101000000 ;
b101000000 p
b101000000 z
b101000000 ="
b101001000 )
b101001000 %"
b101001000 :"
1!
#420000
0!
#425000
b101010000 )
b101010000 %"
b101010000 :"
b101001000 ;
b101001000 p
b101001000 z
b101001000 ="
b101000000 w
b101000000 G
b101000000 }
b101011000 :
b101011000 ~
b101010000 O
b101010000 &"
1!
#430000
0!
#435000
b101100000 :
b101100000 ~
b101011000 O
b101011000 &"
b101001000 G
b101001000 }
b101001000 w
b101010000 ;
b101010000 p
b101010000 z
b101010000 ="
b101011000 )
b101011000 %"
b101011000 :"
1!
#440000
0!
#445000
b101100000 )
b101100000 %"
b101100000 :"
b101011000 ;
b101011000 p
b101011000 z
b101011000 ="
b101010000 w
b101010000 G
b101010000 }
b101101000 :
b101101000 ~
b101100000 O
b101100000 &"
1!
#450000
0!
#455000
b101110000 :
b101110000 ~
b101101000 O
b101101000 &"
b101011000 G
b101011000 }
b101011000 w
b101100000 ;
b101100000 p
b101100000 z
b101100000 ="
b101101000 )
b101101000 %"
b101101000 :"
1!
#460000
0!
#465000
b101110000 )
b101110000 %"
b101110000 :"
b101101000 ;
b101101000 p
b101101000 z
b101101000 ="
b101100000 w
b101100000 G
b101100000 }
b101111000 :
b101111000 ~
b101110000 O
b101110000 &"
1!
#470000
0!
#475000
b110000000 :
b110000000 ~
b101111000 O
b101111000 &"
b101101000 G
b101101000 }
b101101000 w
b101110000 ;
b101110000 p
b101110000 z
b101110000 ="
b101111000 )
b101111000 %"
b101111000 :"
1!
#480000
0!
#485000
b110000000 )
b110000000 %"
b110000000 :"
b101111000 ;
b101111000 p
b101111000 z
b101111000 ="
b101110000 w
b101110000 G
b101110000 }
b110001000 :
b110001000 ~
b110000000 O
b110000000 &"
1!
#490000
0!
#495000
b110010000 :
b110010000 ~
b110001000 O
b110001000 &"
b101111000 G
b101111000 }
b101111000 w
b110000000 ;
b110000000 p
b110000000 z
b110000000 ="
b110001000 )
b110001000 %"
b110001000 :"
1!
#500000
0!
#505000
b110010000 )
b110010000 %"
b110010000 :"
b110001000 ;
b110001000 p
b110001000 z
b110001000 ="
b110000000 w
b110000000 G
b110000000 }
b110011000 :
b110011000 ~
b110010000 O
b110010000 &"
1!
#510000
0!
#515000
b110100000 :
b110100000 ~
b110011000 O
b110011000 &"
b110001000 G
b110001000 }
b110001000 w
b110010000 ;
b110010000 p
b110010000 z
b110010000 ="
b110011000 )
b110011000 %"
b110011000 :"
1!
#520000
0!
#525000
b110100000 )
b110100000 %"
b110100000 :"
b110011000 ;
b110011000 p
b110011000 z
b110011000 ="
b110010000 w
b110010000 G
b110010000 }
b110101000 :
b110101000 ~
b110100000 O
b110100000 &"
1!
#530000
0!
#535000
b110110000 :
b110110000 ~
b110101000 O
b110101000 &"
b110011000 G
b110011000 }
b110011000 w
b110100000 ;
b110100000 p
b110100000 z
b110100000 ="
b110101000 )
b110101000 %"
b110101000 :"
1!
#540000
0!
#545000
b110110000 )
b110110000 %"
b110110000 :"
b110101000 ;
b110101000 p
b110101000 z
b110101000 ="
b110100000 w
b110100000 G
b110100000 }
b110111000 :
b110111000 ~
b110110000 O
b110110000 &"
1!
#550000
0!
#555000
b111000000 :
b111000000 ~
b110111000 O
b110111000 &"
b110101000 G
b110101000 }
b110101000 w
b110110000 ;
b110110000 p
b110110000 z
b110110000 ="
b110111000 )
b110111000 %"
b110111000 :"
1!
#560000
0!
